xpm_cdc.sv,systemverilog,xil_defaultlib,../../../../../../Xilinx/Vivado/2016.4/data/ip/xpm/xpm_cdc/hdl/xpm_cdc.sv,incdir="../../../../project_1.srcs/sources_1/bd/design_1/ipshared/100a"incdir="../../../../project_1.srcs/sources_1/bd/design_1/ipshared/7e3a/hdl"incdir="../../../../project_1.srcs/sources_1/bd/design_1/ipshared/100a"incdir="../../../../project_1.srcs/sources_1/bd/design_1/ipshared/7e3a/hdl"
xpm_memory.sv,systemverilog,xil_defaultlib,../../../../../../Xilinx/Vivado/2016.4/data/ip/xpm/xpm_memory/hdl/xpm_memory.sv,incdir="../../../../project_1.srcs/sources_1/bd/design_1/ipshared/100a"incdir="../../../../project_1.srcs/sources_1/bd/design_1/ipshared/7e3a/hdl"incdir="../../../../project_1.srcs/sources_1/bd/design_1/ipshared/100a"incdir="../../../../project_1.srcs/sources_1/bd/design_1/ipshared/7e3a/hdl"
xpm_VCOMP.vhd,vhdl,xpm,../../../../../../Xilinx/Vivado/2016.4/data/ip/xpm/xpm_VCOMP.vhd,incdir="../../../../project_1.srcs/sources_1/bd/design_1/ipshared/100a"incdir="../../../../project_1.srcs/sources_1/bd/design_1/ipshared/7e3a/hdl"incdir="../../../../project_1.srcs/sources_1/bd/design_1/ipshared/100a"incdir="../../../../project_1.srcs/sources_1/bd/design_1/ipshared/7e3a/hdl"
axi_lite_ipif_v3_0_vh_rfs.vhd,vhdl,axi_lite_ipif_v3_0_4,../../../../project_1.srcs/sources_1/bd/design_1/ipshared/0ba0/hdl/axi_lite_ipif_v3_0_vh_rfs.vhd,incdir="../../../../project_1.srcs/sources_1/bd/design_1/ipshared/100a"incdir="../../../../project_1.srcs/sources_1/bd/design_1/ipshared/7e3a/hdl"incdir="../../../../project_1.srcs/sources_1/bd/design_1/ipshared/100a"incdir="../../../../project_1.srcs/sources_1/bd/design_1/ipshared/7e3a/hdl"
lib_cdc_v1_0_rfs.vhd,vhdl,lib_cdc_v1_0_2,../../../../project_1.srcs/sources_1/bd/design_1/ipshared/52cb/hdl/lib_cdc_v1_0_rfs.vhd,incdir="../../../../project_1.srcs/sources_1/bd/design_1/ipshared/100a"incdir="../../../../project_1.srcs/sources_1/bd/design_1/ipshared/7e3a/hdl"incdir="../../../../project_1.srcs/sources_1/bd/design_1/ipshared/100a"incdir="../../../../project_1.srcs/sources_1/bd/design_1/ipshared/7e3a/hdl"
blk_mem_gen_v8_3.v,verilog,blk_mem_gen_v8_3_5,../../../../project_1.srcs/sources_1/bd/design_1/ipshared/6273/simulation/blk_mem_gen_v8_3.v,incdir="../../../../project_1.srcs/sources_1/bd/design_1/ipshared/100a"incdir="../../../../project_1.srcs/sources_1/bd/design_1/ipshared/7e3a/hdl"incdir="../../../../project_1.srcs/sources_1/bd/design_1/ipshared/100a"incdir="../../../../project_1.srcs/sources_1/bd/design_1/ipshared/7e3a/hdl"
lib_bmg_v1_0_rfs.vhd,vhdl,lib_bmg_v1_0_7,../../../../project_1.srcs/sources_1/bd/design_1/ipshared/38e8/hdl/lib_bmg_v1_0_rfs.vhd,incdir="../../../../project_1.srcs/sources_1/bd/design_1/ipshared/100a"incdir="../../../../project_1.srcs/sources_1/bd/design_1/ipshared/7e3a/hdl"incdir="../../../../project_1.srcs/sources_1/bd/design_1/ipshared/100a"incdir="../../../../project_1.srcs/sources_1/bd/design_1/ipshared/7e3a/hdl"
fifo_generator_vlog_beh.v,verilog,fifo_generator_v13_1_3,../../../../project_1.srcs/sources_1/bd/design_1/ipshared/564d/simulation/fifo_generator_vlog_beh.v,incdir="../../../../project_1.srcs/sources_1/bd/design_1/ipshared/100a"incdir="../../../../project_1.srcs/sources_1/bd/design_1/ipshared/7e3a/hdl"incdir="../../../../project_1.srcs/sources_1/bd/design_1/ipshared/100a"incdir="../../../../project_1.srcs/sources_1/bd/design_1/ipshared/7e3a/hdl"
fifo_generator_v13_1_rfs.vhd,vhdl,fifo_generator_v13_1_3,../../../../project_1.srcs/sources_1/bd/design_1/ipshared/564d/hdl/fifo_generator_v13_1_rfs.vhd,incdir="../../../../project_1.srcs/sources_1/bd/design_1/ipshared/100a"incdir="../../../../project_1.srcs/sources_1/bd/design_1/ipshared/7e3a/hdl"incdir="../../../../project_1.srcs/sources_1/bd/design_1/ipshared/100a"incdir="../../../../project_1.srcs/sources_1/bd/design_1/ipshared/7e3a/hdl"
fifo_generator_v13_1_rfs.v,verilog,fifo_generator_v13_1_3,../../../../project_1.srcs/sources_1/bd/design_1/ipshared/564d/hdl/fifo_generator_v13_1_rfs.v,incdir="../../../../project_1.srcs/sources_1/bd/design_1/ipshared/100a"incdir="../../../../project_1.srcs/sources_1/bd/design_1/ipshared/7e3a/hdl"incdir="../../../../project_1.srcs/sources_1/bd/design_1/ipshared/100a"incdir="../../../../project_1.srcs/sources_1/bd/design_1/ipshared/7e3a/hdl"
lib_fifo_v1_0_rfs.vhd,vhdl,lib_fifo_v1_0_7,../../../../project_1.srcs/sources_1/bd/design_1/ipshared/5ab6/hdl/lib_fifo_v1_0_rfs.vhd,incdir="../../../../project_1.srcs/sources_1/bd/design_1/ipshared/100a"incdir="../../../../project_1.srcs/sources_1/bd/design_1/ipshared/7e3a/hdl"incdir="../../../../project_1.srcs/sources_1/bd/design_1/ipshared/100a"incdir="../../../../project_1.srcs/sources_1/bd/design_1/ipshared/7e3a/hdl"
axi_ethernetlite_v3_0_vh_rfs.vhd,vhdl,axi_ethernetlite_v3_0_9,../../../../project_1.srcs/sources_1/bd/design_1/ipshared/f627/hdl/axi_ethernetlite_v3_0_vh_rfs.vhd,incdir="../../../../project_1.srcs/sources_1/bd/design_1/ipshared/100a"incdir="../../../../project_1.srcs/sources_1/bd/design_1/ipshared/7e3a/hdl"incdir="../../../../project_1.srcs/sources_1/bd/design_1/ipshared/100a"incdir="../../../../project_1.srcs/sources_1/bd/design_1/ipshared/7e3a/hdl"
design_1_axi_ethernetlite_0_0.vhd,vhdl,xil_defaultlib,../../../bd/design_1/ip/design_1_axi_ethernetlite_0_0/sim/design_1_axi_ethernetlite_0_0.vhd,incdir="../../../../project_1.srcs/sources_1/bd/design_1/ipshared/100a"incdir="../../../../project_1.srcs/sources_1/bd/design_1/ipshared/7e3a/hdl"incdir="../../../../project_1.srcs/sources_1/bd/design_1/ipshared/100a"incdir="../../../../project_1.srcs/sources_1/bd/design_1/ipshared/7e3a/hdl"
interrupt_control_v3_1_vh_rfs.vhd,vhdl,interrupt_control_v3_1_4,../../../../project_1.srcs/sources_1/bd/design_1/ipshared/e956/hdl/interrupt_control_v3_1_vh_rfs.vhd,incdir="../../../../project_1.srcs/sources_1/bd/design_1/ipshared/100a"incdir="../../../../project_1.srcs/sources_1/bd/design_1/ipshared/7e3a/hdl"incdir="../../../../project_1.srcs/sources_1/bd/design_1/ipshared/100a"incdir="../../../../project_1.srcs/sources_1/bd/design_1/ipshared/7e3a/hdl"
axi_gpio_v2_0_vh_rfs.vhd,vhdl,axi_gpio_v2_0_13,../../../../project_1.srcs/sources_1/bd/design_1/ipshared/4f16/hdl/axi_gpio_v2_0_vh_rfs.vhd,incdir="../../../../project_1.srcs/sources_1/bd/design_1/ipshared/100a"incdir="../../../../project_1.srcs/sources_1/bd/design_1/ipshared/7e3a/hdl"incdir="../../../../project_1.srcs/sources_1/bd/design_1/ipshared/100a"incdir="../../../../project_1.srcs/sources_1/bd/design_1/ipshared/7e3a/hdl"
design_1_axi_gpio_0_0.vhd,vhdl,xil_defaultlib,../../../bd/design_1/ip/design_1_axi_gpio_0_0/sim/design_1_axi_gpio_0_0.vhd,incdir="../../../../project_1.srcs/sources_1/bd/design_1/ipshared/100a"incdir="../../../../project_1.srcs/sources_1/bd/design_1/ipshared/7e3a/hdl"incdir="../../../../project_1.srcs/sources_1/bd/design_1/ipshared/100a"incdir="../../../../project_1.srcs/sources_1/bd/design_1/ipshared/7e3a/hdl"
design_1_axi_gpio_1_0.vhd,vhdl,xil_defaultlib,../../../bd/design_1/ip/design_1_axi_gpio_1_0/sim/design_1_axi_gpio_1_0.vhd,incdir="../../../../project_1.srcs/sources_1/bd/design_1/ipshared/100a"incdir="../../../../project_1.srcs/sources_1/bd/design_1/ipshared/7e3a/hdl"incdir="../../../../project_1.srcs/sources_1/bd/design_1/ipshared/100a"incdir="../../../../project_1.srcs/sources_1/bd/design_1/ipshared/7e3a/hdl"
lib_pkg_v1_0_rfs.vhd,vhdl,lib_pkg_v1_0_2,../../../../project_1.srcs/sources_1/bd/design_1/ipshared/832a/hdl/lib_pkg_v1_0_rfs.vhd,incdir="../../../../project_1.srcs/sources_1/bd/design_1/ipshared/100a"incdir="../../../../project_1.srcs/sources_1/bd/design_1/ipshared/7e3a/hdl"incdir="../../../../project_1.srcs/sources_1/bd/design_1/ipshared/100a"incdir="../../../../project_1.srcs/sources_1/bd/design_1/ipshared/7e3a/hdl"
axi_timer_v2_0_vh_rfs.vhd,vhdl,axi_timer_v2_0_13,../../../../project_1.srcs/sources_1/bd/design_1/ipshared/3edf/hdl/axi_timer_v2_0_vh_rfs.vhd,incdir="../../../../project_1.srcs/sources_1/bd/design_1/ipshared/100a"incdir="../../../../project_1.srcs/sources_1/bd/design_1/ipshared/7e3a/hdl"incdir="../../../../project_1.srcs/sources_1/bd/design_1/ipshared/100a"incdir="../../../../project_1.srcs/sources_1/bd/design_1/ipshared/7e3a/hdl"
design_1_axi_timer_0_0.vhd,vhdl,xil_defaultlib,../../../bd/design_1/ip/design_1_axi_timer_0_0/sim/design_1_axi_timer_0_0.vhd,incdir="../../../../project_1.srcs/sources_1/bd/design_1/ipshared/100a"incdir="../../../../project_1.srcs/sources_1/bd/design_1/ipshared/7e3a/hdl"incdir="../../../../project_1.srcs/sources_1/bd/design_1/ipshared/100a"incdir="../../../../project_1.srcs/sources_1/bd/design_1/ipshared/7e3a/hdl"
lib_srl_fifo_v1_0_rfs.vhd,vhdl,lib_srl_fifo_v1_0_2,../../../../project_1.srcs/sources_1/bd/design_1/ipshared/6039/hdl/lib_srl_fifo_v1_0_rfs.vhd,incdir="../../../../project_1.srcs/sources_1/bd/design_1/ipshared/100a"incdir="../../../../project_1.srcs/sources_1/bd/design_1/ipshared/7e3a/hdl"incdir="../../../../project_1.srcs/sources_1/bd/design_1/ipshared/100a"incdir="../../../../project_1.srcs/sources_1/bd/design_1/ipshared/7e3a/hdl"
axi_uartlite_v2_0_vh_rfs.vhd,vhdl,axi_uartlite_v2_0_15,../../../../project_1.srcs/sources_1/bd/design_1/ipshared/2479/hdl/axi_uartlite_v2_0_vh_rfs.vhd,incdir="../../../../project_1.srcs/sources_1/bd/design_1/ipshared/100a"incdir="../../../../project_1.srcs/sources_1/bd/design_1/ipshared/7e3a/hdl"incdir="../../../../project_1.srcs/sources_1/bd/design_1/ipshared/100a"incdir="../../../../project_1.srcs/sources_1/bd/design_1/ipshared/7e3a/hdl"
design_1_axi_uartlite_0_0.vhd,vhdl,xil_defaultlib,../../../bd/design_1/ip/design_1_axi_uartlite_0_0/sim/design_1_axi_uartlite_0_0.vhd,incdir="../../../../project_1.srcs/sources_1/bd/design_1/ipshared/100a"incdir="../../../../project_1.srcs/sources_1/bd/design_1/ipshared/7e3a/hdl"incdir="../../../../project_1.srcs/sources_1/bd/design_1/ipshared/100a"incdir="../../../../project_1.srcs/sources_1/bd/design_1/ipshared/7e3a/hdl"
design_1_clk_wiz_0_0_clk_wiz.v,verilog,xil_defaultlib,../../../bd/design_1/ip/design_1_clk_wiz_0_0/design_1_clk_wiz_0_0_clk_wiz.v,incdir="../../../../project_1.srcs/sources_1/bd/design_1/ipshared/100a"incdir="../../../../project_1.srcs/sources_1/bd/design_1/ipshared/7e3a/hdl"incdir="../../../../project_1.srcs/sources_1/bd/design_1/ipshared/100a"incdir="../../../../project_1.srcs/sources_1/bd/design_1/ipshared/7e3a/hdl"
design_1_clk_wiz_0_0.v,verilog,xil_defaultlib,../../../bd/design_1/ip/design_1_clk_wiz_0_0/design_1_clk_wiz_0_0.v,incdir="../../../../project_1.srcs/sources_1/bd/design_1/ipshared/100a"incdir="../../../../project_1.srcs/sources_1/bd/design_1/ipshared/7e3a/hdl"incdir="../../../../project_1.srcs/sources_1/bd/design_1/ipshared/100a"incdir="../../../../project_1.srcs/sources_1/bd/design_1/ipshared/7e3a/hdl"
mdm_v3_2_vh_rfs.vhd,vhdl,mdm_v3_2_8,../../../../project_1.srcs/sources_1/bd/design_1/ipshared/71de/hdl/mdm_v3_2_vh_rfs.vhd,incdir="../../../../project_1.srcs/sources_1/bd/design_1/ipshared/100a"incdir="../../../../project_1.srcs/sources_1/bd/design_1/ipshared/7e3a/hdl"incdir="../../../../project_1.srcs/sources_1/bd/design_1/ipshared/100a"incdir="../../../../project_1.srcs/sources_1/bd/design_1/ipshared/7e3a/hdl"
design_1_mdm_1_0.vhd,vhdl,xil_defaultlib,../../../bd/design_1/ip/design_1_mdm_1_0/sim/design_1_mdm_1_0.vhd,incdir="../../../../project_1.srcs/sources_1/bd/design_1/ipshared/100a"incdir="../../../../project_1.srcs/sources_1/bd/design_1/ipshared/7e3a/hdl"incdir="../../../../project_1.srcs/sources_1/bd/design_1/ipshared/100a"incdir="../../../../project_1.srcs/sources_1/bd/design_1/ipshared/7e3a/hdl"
microblaze_v10_0_vh_rfs.vhd,vhdl,microblaze_v10_0_1,../../../../project_1.srcs/sources_1/bd/design_1/ipshared/18bd/hdl/microblaze_v10_0_vh_rfs.vhd,incdir="../../../../project_1.srcs/sources_1/bd/design_1/ipshared/100a"incdir="../../../../project_1.srcs/sources_1/bd/design_1/ipshared/7e3a/hdl"incdir="../../../../project_1.srcs/sources_1/bd/design_1/ipshared/100a"incdir="../../../../project_1.srcs/sources_1/bd/design_1/ipshared/7e3a/hdl"
design_1_microblaze_0_0.vhd,vhdl,xil_defaultlib,../../../bd/design_1/ip/design_1_microblaze_0_0/sim/design_1_microblaze_0_0.vhd,incdir="../../../../project_1.srcs/sources_1/bd/design_1/ipshared/100a"incdir="../../../../project_1.srcs/sources_1/bd/design_1/ipshared/7e3a/hdl"incdir="../../../../project_1.srcs/sources_1/bd/design_1/ipshared/100a"incdir="../../../../project_1.srcs/sources_1/bd/design_1/ipshared/7e3a/hdl"
axi_intc_v4_1_vh_rfs.vhd,vhdl,axi_intc_v4_1_9,../../../../project_1.srcs/sources_1/bd/design_1/ipshared/a811/hdl/axi_intc_v4_1_vh_rfs.vhd,incdir="../../../../project_1.srcs/sources_1/bd/design_1/ipshared/100a"incdir="../../../../project_1.srcs/sources_1/bd/design_1/ipshared/7e3a/hdl"incdir="../../../../project_1.srcs/sources_1/bd/design_1/ipshared/100a"incdir="../../../../project_1.srcs/sources_1/bd/design_1/ipshared/7e3a/hdl"
design_1_microblaze_0_axi_intc_0.vhd,vhdl,xil_defaultlib,../../../bd/design_1/ip/design_1_microblaze_0_axi_intc_0/sim/design_1_microblaze_0_axi_intc_0.vhd,incdir="../../../../project_1.srcs/sources_1/bd/design_1/ipshared/100a"incdir="../../../../project_1.srcs/sources_1/bd/design_1/ipshared/7e3a/hdl"incdir="../../../../project_1.srcs/sources_1/bd/design_1/ipshared/100a"incdir="../../../../project_1.srcs/sources_1/bd/design_1/ipshared/7e3a/hdl"
lmb_bram_if_cntlr_v4_0_vh_rfs.vhd,vhdl,lmb_bram_if_cntlr_v4_0_10,../../../../project_1.srcs/sources_1/bd/design_1/ipshared/f4d9/hdl/lmb_bram_if_cntlr_v4_0_vh_rfs.vhd,incdir="../../../../project_1.srcs/sources_1/bd/design_1/ipshared/100a"incdir="../../../../project_1.srcs/sources_1/bd/design_1/ipshared/7e3a/hdl"incdir="../../../../project_1.srcs/sources_1/bd/design_1/ipshared/100a"incdir="../../../../project_1.srcs/sources_1/bd/design_1/ipshared/7e3a/hdl"
design_1_dlmb_bram_if_cntlr_0.vhd,vhdl,xil_defaultlib,../../../bd/design_1/ip/design_1_dlmb_bram_if_cntlr_0/sim/design_1_dlmb_bram_if_cntlr_0.vhd,incdir="../../../../project_1.srcs/sources_1/bd/design_1/ipshared/100a"incdir="../../../../project_1.srcs/sources_1/bd/design_1/ipshared/7e3a/hdl"incdir="../../../../project_1.srcs/sources_1/bd/design_1/ipshared/100a"incdir="../../../../project_1.srcs/sources_1/bd/design_1/ipshared/7e3a/hdl"
lmb_v10_v3_0_vh_rfs.vhd,vhdl,lmb_v10_v3_0_9,../../../../project_1.srcs/sources_1/bd/design_1/ipshared/162e/hdl/lmb_v10_v3_0_vh_rfs.vhd,incdir="../../../../project_1.srcs/sources_1/bd/design_1/ipshared/100a"incdir="../../../../project_1.srcs/sources_1/bd/design_1/ipshared/7e3a/hdl"incdir="../../../../project_1.srcs/sources_1/bd/design_1/ipshared/100a"incdir="../../../../project_1.srcs/sources_1/bd/design_1/ipshared/7e3a/hdl"
design_1_dlmb_v10_0.vhd,vhdl,xil_defaultlib,../../../bd/design_1/ip/design_1_dlmb_v10_0/sim/design_1_dlmb_v10_0.vhd,incdir="../../../../project_1.srcs/sources_1/bd/design_1/ipshared/100a"incdir="../../../../project_1.srcs/sources_1/bd/design_1/ipshared/7e3a/hdl"incdir="../../../../project_1.srcs/sources_1/bd/design_1/ipshared/100a"incdir="../../../../project_1.srcs/sources_1/bd/design_1/ipshared/7e3a/hdl"
design_1_ilmb_bram_if_cntlr_0.vhd,vhdl,xil_defaultlib,../../../bd/design_1/ip/design_1_ilmb_bram_if_cntlr_0/sim/design_1_ilmb_bram_if_cntlr_0.vhd,incdir="../../../../project_1.srcs/sources_1/bd/design_1/ipshared/100a"incdir="../../../../project_1.srcs/sources_1/bd/design_1/ipshared/7e3a/hdl"incdir="../../../../project_1.srcs/sources_1/bd/design_1/ipshared/100a"incdir="../../../../project_1.srcs/sources_1/bd/design_1/ipshared/7e3a/hdl"
design_1_ilmb_v10_0.vhd,vhdl,xil_defaultlib,../../../bd/design_1/ip/design_1_ilmb_v10_0/sim/design_1_ilmb_v10_0.vhd,incdir="../../../../project_1.srcs/sources_1/bd/design_1/ipshared/100a"incdir="../../../../project_1.srcs/sources_1/bd/design_1/ipshared/7e3a/hdl"incdir="../../../../project_1.srcs/sources_1/bd/design_1/ipshared/100a"incdir="../../../../project_1.srcs/sources_1/bd/design_1/ipshared/7e3a/hdl"
design_1_lmb_bram_0.v,verilog,xil_defaultlib,../../../bd/design_1/ip/design_1_lmb_bram_0/sim/design_1_lmb_bram_0.v,incdir="../../../../project_1.srcs/sources_1/bd/design_1/ipshared/100a"incdir="../../../../project_1.srcs/sources_1/bd/design_1/ipshared/7e3a/hdl"incdir="../../../../project_1.srcs/sources_1/bd/design_1/ipshared/100a"incdir="../../../../project_1.srcs/sources_1/bd/design_1/ipshared/7e3a/hdl"
xlconcat.v,verilog,xil_defaultlib,../../../bd/design_1/ipshared/2e37/xlconcat.v,incdir="../../../../project_1.srcs/sources_1/bd/design_1/ipshared/100a"incdir="../../../../project_1.srcs/sources_1/bd/design_1/ipshared/7e3a/hdl"incdir="../../../../project_1.srcs/sources_1/bd/design_1/ipshared/100a"incdir="../../../../project_1.srcs/sources_1/bd/design_1/ipshared/7e3a/hdl"
design_1_microblaze_0_xlconcat_0.v,verilog,xil_defaultlib,../../../bd/design_1/ip/design_1_microblaze_0_xlconcat_0/sim/design_1_microblaze_0_xlconcat_0.v,incdir="../../../../project_1.srcs/sources_1/bd/design_1/ipshared/100a"incdir="../../../../project_1.srcs/sources_1/bd/design_1/ipshared/7e3a/hdl"incdir="../../../../project_1.srcs/sources_1/bd/design_1/ipshared/100a"incdir="../../../../project_1.srcs/sources_1/bd/design_1/ipshared/7e3a/hdl"
mig_7series_v4_0_axi_ctrl_addr_decode.v,verilog,xil_defaultlib,../../../bd/design_1/ip/design_1_mig_7series_0_0/design_1_mig_7series_0_0/user_design/rtl/axi/mig_7series_v4_0_axi_ctrl_addr_decode.v,incdir="../../../../project_1.srcs/sources_1/bd/design_1/ipshared/100a"incdir="../../../../project_1.srcs/sources_1/bd/design_1/ipshared/7e3a/hdl"incdir="../../../../project_1.srcs/sources_1/bd/design_1/ipshared/100a"incdir="../../../../project_1.srcs/sources_1/bd/design_1/ipshared/7e3a/hdl"
mig_7series_v4_0_axi_ctrl_read.v,verilog,xil_defaultlib,../../../bd/design_1/ip/design_1_mig_7series_0_0/design_1_mig_7series_0_0/user_design/rtl/axi/mig_7series_v4_0_axi_ctrl_read.v,incdir="../../../../project_1.srcs/sources_1/bd/design_1/ipshared/100a"incdir="../../../../project_1.srcs/sources_1/bd/design_1/ipshared/7e3a/hdl"incdir="../../../../project_1.srcs/sources_1/bd/design_1/ipshared/100a"incdir="../../../../project_1.srcs/sources_1/bd/design_1/ipshared/7e3a/hdl"
mig_7series_v4_0_axi_ctrl_reg.v,verilog,xil_defaultlib,../../../bd/design_1/ip/design_1_mig_7series_0_0/design_1_mig_7series_0_0/user_design/rtl/axi/mig_7series_v4_0_axi_ctrl_reg.v,incdir="../../../../project_1.srcs/sources_1/bd/design_1/ipshared/100a"incdir="../../../../project_1.srcs/sources_1/bd/design_1/ipshared/7e3a/hdl"incdir="../../../../project_1.srcs/sources_1/bd/design_1/ipshared/100a"incdir="../../../../project_1.srcs/sources_1/bd/design_1/ipshared/7e3a/hdl"
mig_7series_v4_0_axi_ctrl_reg_bank.v,verilog,xil_defaultlib,../../../bd/design_1/ip/design_1_mig_7series_0_0/design_1_mig_7series_0_0/user_design/rtl/axi/mig_7series_v4_0_axi_ctrl_reg_bank.v,incdir="../../../../project_1.srcs/sources_1/bd/design_1/ipshared/100a"incdir="../../../../project_1.srcs/sources_1/bd/design_1/ipshared/7e3a/hdl"incdir="../../../../project_1.srcs/sources_1/bd/design_1/ipshared/100a"incdir="../../../../project_1.srcs/sources_1/bd/design_1/ipshared/7e3a/hdl"
mig_7series_v4_0_axi_ctrl_top.v,verilog,xil_defaultlib,../../../bd/design_1/ip/design_1_mig_7series_0_0/design_1_mig_7series_0_0/user_design/rtl/axi/mig_7series_v4_0_axi_ctrl_top.v,incdir="../../../../project_1.srcs/sources_1/bd/design_1/ipshared/100a"incdir="../../../../project_1.srcs/sources_1/bd/design_1/ipshared/7e3a/hdl"incdir="../../../../project_1.srcs/sources_1/bd/design_1/ipshared/100a"incdir="../../../../project_1.srcs/sources_1/bd/design_1/ipshared/7e3a/hdl"
mig_7series_v4_0_axi_ctrl_write.v,verilog,xil_defaultlib,../../../bd/design_1/ip/design_1_mig_7series_0_0/design_1_mig_7series_0_0/user_design/rtl/axi/mig_7series_v4_0_axi_ctrl_write.v,incdir="../../../../project_1.srcs/sources_1/bd/design_1/ipshared/100a"incdir="../../../../project_1.srcs/sources_1/bd/design_1/ipshared/7e3a/hdl"incdir="../../../../project_1.srcs/sources_1/bd/design_1/ipshared/100a"incdir="../../../../project_1.srcs/sources_1/bd/design_1/ipshared/7e3a/hdl"
mig_7series_v4_0_axi_mc.v,verilog,xil_defaultlib,../../../bd/design_1/ip/design_1_mig_7series_0_0/design_1_mig_7series_0_0/user_design/rtl/axi/mig_7series_v4_0_axi_mc.v,incdir="../../../../project_1.srcs/sources_1/bd/design_1/ipshared/100a"incdir="../../../../project_1.srcs/sources_1/bd/design_1/ipshared/7e3a/hdl"incdir="../../../../project_1.srcs/sources_1/bd/design_1/ipshared/100a"incdir="../../../../project_1.srcs/sources_1/bd/design_1/ipshared/7e3a/hdl"
mig_7series_v4_0_axi_mc_ar_channel.v,verilog,xil_defaultlib,../../../bd/design_1/ip/design_1_mig_7series_0_0/design_1_mig_7series_0_0/user_design/rtl/axi/mig_7series_v4_0_axi_mc_ar_channel.v,incdir="../../../../project_1.srcs/sources_1/bd/design_1/ipshared/100a"incdir="../../../../project_1.srcs/sources_1/bd/design_1/ipshared/7e3a/hdl"incdir="../../../../project_1.srcs/sources_1/bd/design_1/ipshared/100a"incdir="../../../../project_1.srcs/sources_1/bd/design_1/ipshared/7e3a/hdl"
mig_7series_v4_0_axi_mc_aw_channel.v,verilog,xil_defaultlib,../../../bd/design_1/ip/design_1_mig_7series_0_0/design_1_mig_7series_0_0/user_design/rtl/axi/mig_7series_v4_0_axi_mc_aw_channel.v,incdir="../../../../project_1.srcs/sources_1/bd/design_1/ipshared/100a"incdir="../../../../project_1.srcs/sources_1/bd/design_1/ipshared/7e3a/hdl"incdir="../../../../project_1.srcs/sources_1/bd/design_1/ipshared/100a"incdir="../../../../project_1.srcs/sources_1/bd/design_1/ipshared/7e3a/hdl"
mig_7series_v4_0_axi_mc_b_channel.v,verilog,xil_defaultlib,../../../bd/design_1/ip/design_1_mig_7series_0_0/design_1_mig_7series_0_0/user_design/rtl/axi/mig_7series_v4_0_axi_mc_b_channel.v,incdir="../../../../project_1.srcs/sources_1/bd/design_1/ipshared/100a"incdir="../../../../project_1.srcs/sources_1/bd/design_1/ipshared/7e3a/hdl"incdir="../../../../project_1.srcs/sources_1/bd/design_1/ipshared/100a"incdir="../../../../project_1.srcs/sources_1/bd/design_1/ipshared/7e3a/hdl"
mig_7series_v4_0_axi_mc_cmd_arbiter.v,verilog,xil_defaultlib,../../../bd/design_1/ip/design_1_mig_7series_0_0/design_1_mig_7series_0_0/user_design/rtl/axi/mig_7series_v4_0_axi_mc_cmd_arbiter.v,incdir="../../../../project_1.srcs/sources_1/bd/design_1/ipshared/100a"incdir="../../../../project_1.srcs/sources_1/bd/design_1/ipshared/7e3a/hdl"incdir="../../../../project_1.srcs/sources_1/bd/design_1/ipshared/100a"incdir="../../../../project_1.srcs/sources_1/bd/design_1/ipshared/7e3a/hdl"
mig_7series_v4_0_axi_mc_cmd_fsm.v,verilog,xil_defaultlib,../../../bd/design_1/ip/design_1_mig_7series_0_0/design_1_mig_7series_0_0/user_design/rtl/axi/mig_7series_v4_0_axi_mc_cmd_fsm.v,incdir="../../../../project_1.srcs/sources_1/bd/design_1/ipshared/100a"incdir="../../../../project_1.srcs/sources_1/bd/design_1/ipshared/7e3a/hdl"incdir="../../../../project_1.srcs/sources_1/bd/design_1/ipshared/100a"incdir="../../../../project_1.srcs/sources_1/bd/design_1/ipshared/7e3a/hdl"
mig_7series_v4_0_axi_mc_cmd_translator.v,verilog,xil_defaultlib,../../../bd/design_1/ip/design_1_mig_7series_0_0/design_1_mig_7series_0_0/user_design/rtl/axi/mig_7series_v4_0_axi_mc_cmd_translator.v,incdir="../../../../project_1.srcs/sources_1/bd/design_1/ipshared/100a"incdir="../../../../project_1.srcs/sources_1/bd/design_1/ipshared/7e3a/hdl"incdir="../../../../project_1.srcs/sources_1/bd/design_1/ipshared/100a"incdir="../../../../project_1.srcs/sources_1/bd/design_1/ipshared/7e3a/hdl"
mig_7series_v4_0_axi_mc_fifo.v,verilog,xil_defaultlib,../../../bd/design_1/ip/design_1_mig_7series_0_0/design_1_mig_7series_0_0/user_design/rtl/axi/mig_7series_v4_0_axi_mc_fifo.v,incdir="../../../../project_1.srcs/sources_1/bd/design_1/ipshared/100a"incdir="../../../../project_1.srcs/sources_1/bd/design_1/ipshared/7e3a/hdl"incdir="../../../../project_1.srcs/sources_1/bd/design_1/ipshared/100a"incdir="../../../../project_1.srcs/sources_1/bd/design_1/ipshared/7e3a/hdl"
mig_7series_v4_0_axi_mc_incr_cmd.v,verilog,xil_defaultlib,../../../bd/design_1/ip/design_1_mig_7series_0_0/design_1_mig_7series_0_0/user_design/rtl/axi/mig_7series_v4_0_axi_mc_incr_cmd.v,incdir="../../../../project_1.srcs/sources_1/bd/design_1/ipshared/100a"incdir="../../../../project_1.srcs/sources_1/bd/design_1/ipshared/7e3a/hdl"incdir="../../../../project_1.srcs/sources_1/bd/design_1/ipshared/100a"incdir="../../../../project_1.srcs/sources_1/bd/design_1/ipshared/7e3a/hdl"
mig_7series_v4_0_axi_mc_r_channel.v,verilog,xil_defaultlib,../../../bd/design_1/ip/design_1_mig_7series_0_0/design_1_mig_7series_0_0/user_design/rtl/axi/mig_7series_v4_0_axi_mc_r_channel.v,incdir="../../../../project_1.srcs/sources_1/bd/design_1/ipshared/100a"incdir="../../../../project_1.srcs/sources_1/bd/design_1/ipshared/7e3a/hdl"incdir="../../../../project_1.srcs/sources_1/bd/design_1/ipshared/100a"incdir="../../../../project_1.srcs/sources_1/bd/design_1/ipshared/7e3a/hdl"
mig_7series_v4_0_axi_mc_simple_fifo.v,verilog,xil_defaultlib,../../../bd/design_1/ip/design_1_mig_7series_0_0/design_1_mig_7series_0_0/user_design/rtl/axi/mig_7series_v4_0_axi_mc_simple_fifo.v,incdir="../../../../project_1.srcs/sources_1/bd/design_1/ipshared/100a"incdir="../../../../project_1.srcs/sources_1/bd/design_1/ipshared/7e3a/hdl"incdir="../../../../project_1.srcs/sources_1/bd/design_1/ipshared/100a"incdir="../../../../project_1.srcs/sources_1/bd/design_1/ipshared/7e3a/hdl"
mig_7series_v4_0_axi_mc_wrap_cmd.v,verilog,xil_defaultlib,../../../bd/design_1/ip/design_1_mig_7series_0_0/design_1_mig_7series_0_0/user_design/rtl/axi/mig_7series_v4_0_axi_mc_wrap_cmd.v,incdir="../../../../project_1.srcs/sources_1/bd/design_1/ipshared/100a"incdir="../../../../project_1.srcs/sources_1/bd/design_1/ipshared/7e3a/hdl"incdir="../../../../project_1.srcs/sources_1/bd/design_1/ipshared/100a"incdir="../../../../project_1.srcs/sources_1/bd/design_1/ipshared/7e3a/hdl"
mig_7series_v4_0_axi_mc_wr_cmd_fsm.v,verilog,xil_defaultlib,../../../bd/design_1/ip/design_1_mig_7series_0_0/design_1_mig_7series_0_0/user_design/rtl/axi/mig_7series_v4_0_axi_mc_wr_cmd_fsm.v,incdir="../../../../project_1.srcs/sources_1/bd/design_1/ipshared/100a"incdir="../../../../project_1.srcs/sources_1/bd/design_1/ipshared/7e3a/hdl"incdir="../../../../project_1.srcs/sources_1/bd/design_1/ipshared/100a"incdir="../../../../project_1.srcs/sources_1/bd/design_1/ipshared/7e3a/hdl"
mig_7series_v4_0_axi_mc_w_channel.v,verilog,xil_defaultlib,../../../bd/design_1/ip/design_1_mig_7series_0_0/design_1_mig_7series_0_0/user_design/rtl/axi/mig_7series_v4_0_axi_mc_w_channel.v,incdir="../../../../project_1.srcs/sources_1/bd/design_1/ipshared/100a"incdir="../../../../project_1.srcs/sources_1/bd/design_1/ipshared/7e3a/hdl"incdir="../../../../project_1.srcs/sources_1/bd/design_1/ipshared/100a"incdir="../../../../project_1.srcs/sources_1/bd/design_1/ipshared/7e3a/hdl"
mig_7series_v4_0_ddr_axic_register_slice.v,verilog,xil_defaultlib,../../../bd/design_1/ip/design_1_mig_7series_0_0/design_1_mig_7series_0_0/user_design/rtl/axi/mig_7series_v4_0_ddr_axic_register_slice.v,incdir="../../../../project_1.srcs/sources_1/bd/design_1/ipshared/100a"incdir="../../../../project_1.srcs/sources_1/bd/design_1/ipshared/7e3a/hdl"incdir="../../../../project_1.srcs/sources_1/bd/design_1/ipshared/100a"incdir="../../../../project_1.srcs/sources_1/bd/design_1/ipshared/7e3a/hdl"
mig_7series_v4_0_ddr_axi_register_slice.v,verilog,xil_defaultlib,../../../bd/design_1/ip/design_1_mig_7series_0_0/design_1_mig_7series_0_0/user_design/rtl/axi/mig_7series_v4_0_ddr_axi_register_slice.v,incdir="../../../../project_1.srcs/sources_1/bd/design_1/ipshared/100a"incdir="../../../../project_1.srcs/sources_1/bd/design_1/ipshared/7e3a/hdl"incdir="../../../../project_1.srcs/sources_1/bd/design_1/ipshared/100a"incdir="../../../../project_1.srcs/sources_1/bd/design_1/ipshared/7e3a/hdl"
mig_7series_v4_0_ddr_axi_upsizer.v,verilog,xil_defaultlib,../../../bd/design_1/ip/design_1_mig_7series_0_0/design_1_mig_7series_0_0/user_design/rtl/axi/mig_7series_v4_0_ddr_axi_upsizer.v,incdir="../../../../project_1.srcs/sources_1/bd/design_1/ipshared/100a"incdir="../../../../project_1.srcs/sources_1/bd/design_1/ipshared/7e3a/hdl"incdir="../../../../project_1.srcs/sources_1/bd/design_1/ipshared/100a"incdir="../../../../project_1.srcs/sources_1/bd/design_1/ipshared/7e3a/hdl"
mig_7series_v4_0_ddr_a_upsizer.v,verilog,xil_defaultlib,../../../bd/design_1/ip/design_1_mig_7series_0_0/design_1_mig_7series_0_0/user_design/rtl/axi/mig_7series_v4_0_ddr_a_upsizer.v,incdir="../../../../project_1.srcs/sources_1/bd/design_1/ipshared/100a"incdir="../../../../project_1.srcs/sources_1/bd/design_1/ipshared/7e3a/hdl"incdir="../../../../project_1.srcs/sources_1/bd/design_1/ipshared/100a"incdir="../../../../project_1.srcs/sources_1/bd/design_1/ipshared/7e3a/hdl"
mig_7series_v4_0_ddr_carry_and.v,verilog,xil_defaultlib,../../../bd/design_1/ip/design_1_mig_7series_0_0/design_1_mig_7series_0_0/user_design/rtl/axi/mig_7series_v4_0_ddr_carry_and.v,incdir="../../../../project_1.srcs/sources_1/bd/design_1/ipshared/100a"incdir="../../../../project_1.srcs/sources_1/bd/design_1/ipshared/7e3a/hdl"incdir="../../../../project_1.srcs/sources_1/bd/design_1/ipshared/100a"incdir="../../../../project_1.srcs/sources_1/bd/design_1/ipshared/7e3a/hdl"
mig_7series_v4_0_ddr_carry_latch_and.v,verilog,xil_defaultlib,../../../bd/design_1/ip/design_1_mig_7series_0_0/design_1_mig_7series_0_0/user_design/rtl/axi/mig_7series_v4_0_ddr_carry_latch_and.v,incdir="../../../../project_1.srcs/sources_1/bd/design_1/ipshared/100a"incdir="../../../../project_1.srcs/sources_1/bd/design_1/ipshared/7e3a/hdl"incdir="../../../../project_1.srcs/sources_1/bd/design_1/ipshared/100a"incdir="../../../../project_1.srcs/sources_1/bd/design_1/ipshared/7e3a/hdl"
mig_7series_v4_0_ddr_carry_latch_or.v,verilog,xil_defaultlib,../../../bd/design_1/ip/design_1_mig_7series_0_0/design_1_mig_7series_0_0/user_design/rtl/axi/mig_7series_v4_0_ddr_carry_latch_or.v,incdir="../../../../project_1.srcs/sources_1/bd/design_1/ipshared/100a"incdir="../../../../project_1.srcs/sources_1/bd/design_1/ipshared/7e3a/hdl"incdir="../../../../project_1.srcs/sources_1/bd/design_1/ipshared/100a"incdir="../../../../project_1.srcs/sources_1/bd/design_1/ipshared/7e3a/hdl"
mig_7series_v4_0_ddr_carry_or.v,verilog,xil_defaultlib,../../../bd/design_1/ip/design_1_mig_7series_0_0/design_1_mig_7series_0_0/user_design/rtl/axi/mig_7series_v4_0_ddr_carry_or.v,incdir="../../../../project_1.srcs/sources_1/bd/design_1/ipshared/100a"incdir="../../../../project_1.srcs/sources_1/bd/design_1/ipshared/7e3a/hdl"incdir="../../../../project_1.srcs/sources_1/bd/design_1/ipshared/100a"incdir="../../../../project_1.srcs/sources_1/bd/design_1/ipshared/7e3a/hdl"
mig_7series_v4_0_ddr_command_fifo.v,verilog,xil_defaultlib,../../../bd/design_1/ip/design_1_mig_7series_0_0/design_1_mig_7series_0_0/user_design/rtl/axi/mig_7series_v4_0_ddr_command_fifo.v,incdir="../../../../project_1.srcs/sources_1/bd/design_1/ipshared/100a"incdir="../../../../project_1.srcs/sources_1/bd/design_1/ipshared/7e3a/hdl"incdir="../../../../project_1.srcs/sources_1/bd/design_1/ipshared/100a"incdir="../../../../project_1.srcs/sources_1/bd/design_1/ipshared/7e3a/hdl"
mig_7series_v4_0_ddr_comparator.v,verilog,xil_defaultlib,../../../bd/design_1/ip/design_1_mig_7series_0_0/design_1_mig_7series_0_0/user_design/rtl/axi/mig_7series_v4_0_ddr_comparator.v,incdir="../../../../project_1.srcs/sources_1/bd/design_1/ipshared/100a"incdir="../../../../project_1.srcs/sources_1/bd/design_1/ipshared/7e3a/hdl"incdir="../../../../project_1.srcs/sources_1/bd/design_1/ipshared/100a"incdir="../../../../project_1.srcs/sources_1/bd/design_1/ipshared/7e3a/hdl"
mig_7series_v4_0_ddr_comparator_sel.v,verilog,xil_defaultlib,../../../bd/design_1/ip/design_1_mig_7series_0_0/design_1_mig_7series_0_0/user_design/rtl/axi/mig_7series_v4_0_ddr_comparator_sel.v,incdir="../../../../project_1.srcs/sources_1/bd/design_1/ipshared/100a"incdir="../../../../project_1.srcs/sources_1/bd/design_1/ipshared/7e3a/hdl"incdir="../../../../project_1.srcs/sources_1/bd/design_1/ipshared/100a"incdir="../../../../project_1.srcs/sources_1/bd/design_1/ipshared/7e3a/hdl"
mig_7series_v4_0_ddr_comparator_sel_static.v,verilog,xil_defaultlib,../../../bd/design_1/ip/design_1_mig_7series_0_0/design_1_mig_7series_0_0/user_design/rtl/axi/mig_7series_v4_0_ddr_comparator_sel_static.v,incdir="../../../../project_1.srcs/sources_1/bd/design_1/ipshared/100a"incdir="../../../../project_1.srcs/sources_1/bd/design_1/ipshared/7e3a/hdl"incdir="../../../../project_1.srcs/sources_1/bd/design_1/ipshared/100a"incdir="../../../../project_1.srcs/sources_1/bd/design_1/ipshared/7e3a/hdl"
mig_7series_v4_0_ddr_r_upsizer.v,verilog,xil_defaultlib,../../../bd/design_1/ip/design_1_mig_7series_0_0/design_1_mig_7series_0_0/user_design/rtl/axi/mig_7series_v4_0_ddr_r_upsizer.v,incdir="../../../../project_1.srcs/sources_1/bd/design_1/ipshared/100a"incdir="../../../../project_1.srcs/sources_1/bd/design_1/ipshared/7e3a/hdl"incdir="../../../../project_1.srcs/sources_1/bd/design_1/ipshared/100a"incdir="../../../../project_1.srcs/sources_1/bd/design_1/ipshared/7e3a/hdl"
mig_7series_v4_0_ddr_w_upsizer.v,verilog,xil_defaultlib,../../../bd/design_1/ip/design_1_mig_7series_0_0/design_1_mig_7series_0_0/user_design/rtl/axi/mig_7series_v4_0_ddr_w_upsizer.v,incdir="../../../../project_1.srcs/sources_1/bd/design_1/ipshared/100a"incdir="../../../../project_1.srcs/sources_1/bd/design_1/ipshared/7e3a/hdl"incdir="../../../../project_1.srcs/sources_1/bd/design_1/ipshared/100a"incdir="../../../../project_1.srcs/sources_1/bd/design_1/ipshared/7e3a/hdl"
mig_7series_v4_0_clk_ibuf.v,verilog,xil_defaultlib,../../../bd/design_1/ip/design_1_mig_7series_0_0/design_1_mig_7series_0_0/user_design/rtl/clocking/mig_7series_v4_0_clk_ibuf.v,incdir="../../../../project_1.srcs/sources_1/bd/design_1/ipshared/100a"incdir="../../../../project_1.srcs/sources_1/bd/design_1/ipshared/7e3a/hdl"incdir="../../../../project_1.srcs/sources_1/bd/design_1/ipshared/100a"incdir="../../../../project_1.srcs/sources_1/bd/design_1/ipshared/7e3a/hdl"
mig_7series_v4_0_infrastructure.v,verilog,xil_defaultlib,../../../bd/design_1/ip/design_1_mig_7series_0_0/design_1_mig_7series_0_0/user_design/rtl/clocking/mig_7series_v4_0_infrastructure.v,incdir="../../../../project_1.srcs/sources_1/bd/design_1/ipshared/100a"incdir="../../../../project_1.srcs/sources_1/bd/design_1/ipshared/7e3a/hdl"incdir="../../../../project_1.srcs/sources_1/bd/design_1/ipshared/100a"incdir="../../../../project_1.srcs/sources_1/bd/design_1/ipshared/7e3a/hdl"
mig_7series_v4_0_iodelay_ctrl.v,verilog,xil_defaultlib,../../../bd/design_1/ip/design_1_mig_7series_0_0/design_1_mig_7series_0_0/user_design/rtl/clocking/mig_7series_v4_0_iodelay_ctrl.v,incdir="../../../../project_1.srcs/sources_1/bd/design_1/ipshared/100a"incdir="../../../../project_1.srcs/sources_1/bd/design_1/ipshared/7e3a/hdl"incdir="../../../../project_1.srcs/sources_1/bd/design_1/ipshared/100a"incdir="../../../../project_1.srcs/sources_1/bd/design_1/ipshared/7e3a/hdl"
mig_7series_v4_0_tempmon.v,verilog,xil_defaultlib,../../../bd/design_1/ip/design_1_mig_7series_0_0/design_1_mig_7series_0_0/user_design/rtl/clocking/mig_7series_v4_0_tempmon.v,incdir="../../../../project_1.srcs/sources_1/bd/design_1/ipshared/100a"incdir="../../../../project_1.srcs/sources_1/bd/design_1/ipshared/7e3a/hdl"incdir="../../../../project_1.srcs/sources_1/bd/design_1/ipshared/100a"incdir="../../../../project_1.srcs/sources_1/bd/design_1/ipshared/7e3a/hdl"
mig_7series_v4_0_arb_mux.v,verilog,xil_defaultlib,../../../bd/design_1/ip/design_1_mig_7series_0_0/design_1_mig_7series_0_0/user_design/rtl/controller/mig_7series_v4_0_arb_mux.v,incdir="../../../../project_1.srcs/sources_1/bd/design_1/ipshared/100a"incdir="../../../../project_1.srcs/sources_1/bd/design_1/ipshared/7e3a/hdl"incdir="../../../../project_1.srcs/sources_1/bd/design_1/ipshared/100a"incdir="../../../../project_1.srcs/sources_1/bd/design_1/ipshared/7e3a/hdl"
mig_7series_v4_0_arb_row_col.v,verilog,xil_defaultlib,../../../bd/design_1/ip/design_1_mig_7series_0_0/design_1_mig_7series_0_0/user_design/rtl/controller/mig_7series_v4_0_arb_row_col.v,incdir="../../../../project_1.srcs/sources_1/bd/design_1/ipshared/100a"incdir="../../../../project_1.srcs/sources_1/bd/design_1/ipshared/7e3a/hdl"incdir="../../../../project_1.srcs/sources_1/bd/design_1/ipshared/100a"incdir="../../../../project_1.srcs/sources_1/bd/design_1/ipshared/7e3a/hdl"
mig_7series_v4_0_arb_select.v,verilog,xil_defaultlib,../../../bd/design_1/ip/design_1_mig_7series_0_0/design_1_mig_7series_0_0/user_design/rtl/controller/mig_7series_v4_0_arb_select.v,incdir="../../../../project_1.srcs/sources_1/bd/design_1/ipshared/100a"incdir="../../../../project_1.srcs/sources_1/bd/design_1/ipshared/7e3a/hdl"incdir="../../../../project_1.srcs/sources_1/bd/design_1/ipshared/100a"incdir="../../../../project_1.srcs/sources_1/bd/design_1/ipshared/7e3a/hdl"
mig_7series_v4_0_bank_cntrl.v,verilog,xil_defaultlib,../../../bd/design_1/ip/design_1_mig_7series_0_0/design_1_mig_7series_0_0/user_design/rtl/controller/mig_7series_v4_0_bank_cntrl.v,incdir="../../../../project_1.srcs/sources_1/bd/design_1/ipshared/100a"incdir="../../../../project_1.srcs/sources_1/bd/design_1/ipshared/7e3a/hdl"incdir="../../../../project_1.srcs/sources_1/bd/design_1/ipshared/100a"incdir="../../../../project_1.srcs/sources_1/bd/design_1/ipshared/7e3a/hdl"
mig_7series_v4_0_bank_common.v,verilog,xil_defaultlib,../../../bd/design_1/ip/design_1_mig_7series_0_0/design_1_mig_7series_0_0/user_design/rtl/controller/mig_7series_v4_0_bank_common.v,incdir="../../../../project_1.srcs/sources_1/bd/design_1/ipshared/100a"incdir="../../../../project_1.srcs/sources_1/bd/design_1/ipshared/7e3a/hdl"incdir="../../../../project_1.srcs/sources_1/bd/design_1/ipshared/100a"incdir="../../../../project_1.srcs/sources_1/bd/design_1/ipshared/7e3a/hdl"
mig_7series_v4_0_bank_compare.v,verilog,xil_defaultlib,../../../bd/design_1/ip/design_1_mig_7series_0_0/design_1_mig_7series_0_0/user_design/rtl/controller/mig_7series_v4_0_bank_compare.v,incdir="../../../../project_1.srcs/sources_1/bd/design_1/ipshared/100a"incdir="../../../../project_1.srcs/sources_1/bd/design_1/ipshared/7e3a/hdl"incdir="../../../../project_1.srcs/sources_1/bd/design_1/ipshared/100a"incdir="../../../../project_1.srcs/sources_1/bd/design_1/ipshared/7e3a/hdl"
mig_7series_v4_0_bank_mach.v,verilog,xil_defaultlib,../../../bd/design_1/ip/design_1_mig_7series_0_0/design_1_mig_7series_0_0/user_design/rtl/controller/mig_7series_v4_0_bank_mach.v,incdir="../../../../project_1.srcs/sources_1/bd/design_1/ipshared/100a"incdir="../../../../project_1.srcs/sources_1/bd/design_1/ipshared/7e3a/hdl"incdir="../../../../project_1.srcs/sources_1/bd/design_1/ipshared/100a"incdir="../../../../project_1.srcs/sources_1/bd/design_1/ipshared/7e3a/hdl"
mig_7series_v4_0_bank_queue.v,verilog,xil_defaultlib,../../../bd/design_1/ip/design_1_mig_7series_0_0/design_1_mig_7series_0_0/user_design/rtl/controller/mig_7series_v4_0_bank_queue.v,incdir="../../../../project_1.srcs/sources_1/bd/design_1/ipshared/100a"incdir="../../../../project_1.srcs/sources_1/bd/design_1/ipshared/7e3a/hdl"incdir="../../../../project_1.srcs/sources_1/bd/design_1/ipshared/100a"incdir="../../../../project_1.srcs/sources_1/bd/design_1/ipshared/7e3a/hdl"
mig_7series_v4_0_bank_state.v,verilog,xil_defaultlib,../../../bd/design_1/ip/design_1_mig_7series_0_0/design_1_mig_7series_0_0/user_design/rtl/controller/mig_7series_v4_0_bank_state.v,incdir="../../../../project_1.srcs/sources_1/bd/design_1/ipshared/100a"incdir="../../../../project_1.srcs/sources_1/bd/design_1/ipshared/7e3a/hdl"incdir="../../../../project_1.srcs/sources_1/bd/design_1/ipshared/100a"incdir="../../../../project_1.srcs/sources_1/bd/design_1/ipshared/7e3a/hdl"
mig_7series_v4_0_col_mach.v,verilog,xil_defaultlib,../../../bd/design_1/ip/design_1_mig_7series_0_0/design_1_mig_7series_0_0/user_design/rtl/controller/mig_7series_v4_0_col_mach.v,incdir="../../../../project_1.srcs/sources_1/bd/design_1/ipshared/100a"incdir="../../../../project_1.srcs/sources_1/bd/design_1/ipshared/7e3a/hdl"incdir="../../../../project_1.srcs/sources_1/bd/design_1/ipshared/100a"incdir="../../../../project_1.srcs/sources_1/bd/design_1/ipshared/7e3a/hdl"
mig_7series_v4_0_mc.v,verilog,xil_defaultlib,../../../bd/design_1/ip/design_1_mig_7series_0_0/design_1_mig_7series_0_0/user_design/rtl/controller/mig_7series_v4_0_mc.v,incdir="../../../../project_1.srcs/sources_1/bd/design_1/ipshared/100a"incdir="../../../../project_1.srcs/sources_1/bd/design_1/ipshared/7e3a/hdl"incdir="../../../../project_1.srcs/sources_1/bd/design_1/ipshared/100a"incdir="../../../../project_1.srcs/sources_1/bd/design_1/ipshared/7e3a/hdl"
mig_7series_v4_0_rank_cntrl.v,verilog,xil_defaultlib,../../../bd/design_1/ip/design_1_mig_7series_0_0/design_1_mig_7series_0_0/user_design/rtl/controller/mig_7series_v4_0_rank_cntrl.v,incdir="../../../../project_1.srcs/sources_1/bd/design_1/ipshared/100a"incdir="../../../../project_1.srcs/sources_1/bd/design_1/ipshared/7e3a/hdl"incdir="../../../../project_1.srcs/sources_1/bd/design_1/ipshared/100a"incdir="../../../../project_1.srcs/sources_1/bd/design_1/ipshared/7e3a/hdl"
mig_7series_v4_0_rank_common.v,verilog,xil_defaultlib,../../../bd/design_1/ip/design_1_mig_7series_0_0/design_1_mig_7series_0_0/user_design/rtl/controller/mig_7series_v4_0_rank_common.v,incdir="../../../../project_1.srcs/sources_1/bd/design_1/ipshared/100a"incdir="../../../../project_1.srcs/sources_1/bd/design_1/ipshared/7e3a/hdl"incdir="../../../../project_1.srcs/sources_1/bd/design_1/ipshared/100a"incdir="../../../../project_1.srcs/sources_1/bd/design_1/ipshared/7e3a/hdl"
mig_7series_v4_0_rank_mach.v,verilog,xil_defaultlib,../../../bd/design_1/ip/design_1_mig_7series_0_0/design_1_mig_7series_0_0/user_design/rtl/controller/mig_7series_v4_0_rank_mach.v,incdir="../../../../project_1.srcs/sources_1/bd/design_1/ipshared/100a"incdir="../../../../project_1.srcs/sources_1/bd/design_1/ipshared/7e3a/hdl"incdir="../../../../project_1.srcs/sources_1/bd/design_1/ipshared/100a"incdir="../../../../project_1.srcs/sources_1/bd/design_1/ipshared/7e3a/hdl"
mig_7series_v4_0_round_robin_arb.v,verilog,xil_defaultlib,../../../bd/design_1/ip/design_1_mig_7series_0_0/design_1_mig_7series_0_0/user_design/rtl/controller/mig_7series_v4_0_round_robin_arb.v,incdir="../../../../project_1.srcs/sources_1/bd/design_1/ipshared/100a"incdir="../../../../project_1.srcs/sources_1/bd/design_1/ipshared/7e3a/hdl"incdir="../../../../project_1.srcs/sources_1/bd/design_1/ipshared/100a"incdir="../../../../project_1.srcs/sources_1/bd/design_1/ipshared/7e3a/hdl"
mig_7series_v4_0_ecc_buf.v,verilog,xil_defaultlib,../../../bd/design_1/ip/design_1_mig_7series_0_0/design_1_mig_7series_0_0/user_design/rtl/ecc/mig_7series_v4_0_ecc_buf.v,incdir="../../../../project_1.srcs/sources_1/bd/design_1/ipshared/100a"incdir="../../../../project_1.srcs/sources_1/bd/design_1/ipshared/7e3a/hdl"incdir="../../../../project_1.srcs/sources_1/bd/design_1/ipshared/100a"incdir="../../../../project_1.srcs/sources_1/bd/design_1/ipshared/7e3a/hdl"
mig_7series_v4_0_ecc_dec_fix.v,verilog,xil_defaultlib,../../../bd/design_1/ip/design_1_mig_7series_0_0/design_1_mig_7series_0_0/user_design/rtl/ecc/mig_7series_v4_0_ecc_dec_fix.v,incdir="../../../../project_1.srcs/sources_1/bd/design_1/ipshared/100a"incdir="../../../../project_1.srcs/sources_1/bd/design_1/ipshared/7e3a/hdl"incdir="../../../../project_1.srcs/sources_1/bd/design_1/ipshared/100a"incdir="../../../../project_1.srcs/sources_1/bd/design_1/ipshared/7e3a/hdl"
mig_7series_v4_0_ecc_gen.v,verilog,xil_defaultlib,../../../bd/design_1/ip/design_1_mig_7series_0_0/design_1_mig_7series_0_0/user_design/rtl/ecc/mig_7series_v4_0_ecc_gen.v,incdir="../../../../project_1.srcs/sources_1/bd/design_1/ipshared/100a"incdir="../../../../project_1.srcs/sources_1/bd/design_1/ipshared/7e3a/hdl"incdir="../../../../project_1.srcs/sources_1/bd/design_1/ipshared/100a"incdir="../../../../project_1.srcs/sources_1/bd/design_1/ipshared/7e3a/hdl"
mig_7series_v4_0_ecc_merge_enc.v,verilog,xil_defaultlib,../../../bd/design_1/ip/design_1_mig_7series_0_0/design_1_mig_7series_0_0/user_design/rtl/ecc/mig_7series_v4_0_ecc_merge_enc.v,incdir="../../../../project_1.srcs/sources_1/bd/design_1/ipshared/100a"incdir="../../../../project_1.srcs/sources_1/bd/design_1/ipshared/7e3a/hdl"incdir="../../../../project_1.srcs/sources_1/bd/design_1/ipshared/100a"incdir="../../../../project_1.srcs/sources_1/bd/design_1/ipshared/7e3a/hdl"
mig_7series_v4_0_fi_xor.v,verilog,xil_defaultlib,../../../bd/design_1/ip/design_1_mig_7series_0_0/design_1_mig_7series_0_0/user_design/rtl/ecc/mig_7series_v4_0_fi_xor.v,incdir="../../../../project_1.srcs/sources_1/bd/design_1/ipshared/100a"incdir="../../../../project_1.srcs/sources_1/bd/design_1/ipshared/7e3a/hdl"incdir="../../../../project_1.srcs/sources_1/bd/design_1/ipshared/100a"incdir="../../../../project_1.srcs/sources_1/bd/design_1/ipshared/7e3a/hdl"
mig_7series_v4_0_memc_ui_top_axi.v,verilog,xil_defaultlib,../../../bd/design_1/ip/design_1_mig_7series_0_0/design_1_mig_7series_0_0/user_design/rtl/ip_top/mig_7series_v4_0_memc_ui_top_axi.v,incdir="../../../../project_1.srcs/sources_1/bd/design_1/ipshared/100a"incdir="../../../../project_1.srcs/sources_1/bd/design_1/ipshared/7e3a/hdl"incdir="../../../../project_1.srcs/sources_1/bd/design_1/ipshared/100a"incdir="../../../../project_1.srcs/sources_1/bd/design_1/ipshared/7e3a/hdl"
mig_7series_v4_0_mem_intfc.v,verilog,xil_defaultlib,../../../bd/design_1/ip/design_1_mig_7series_0_0/design_1_mig_7series_0_0/user_design/rtl/ip_top/mig_7series_v4_0_mem_intfc.v,incdir="../../../../project_1.srcs/sources_1/bd/design_1/ipshared/100a"incdir="../../../../project_1.srcs/sources_1/bd/design_1/ipshared/7e3a/hdl"incdir="../../../../project_1.srcs/sources_1/bd/design_1/ipshared/100a"incdir="../../../../project_1.srcs/sources_1/bd/design_1/ipshared/7e3a/hdl"
mig_7series_v4_0_ddr_byte_group_io.v,verilog,xil_defaultlib,../../../bd/design_1/ip/design_1_mig_7series_0_0/design_1_mig_7series_0_0/user_design/rtl/phy/mig_7series_v4_0_ddr_byte_group_io.v,incdir="../../../../project_1.srcs/sources_1/bd/design_1/ipshared/100a"incdir="../../../../project_1.srcs/sources_1/bd/design_1/ipshared/7e3a/hdl"incdir="../../../../project_1.srcs/sources_1/bd/design_1/ipshared/100a"incdir="../../../../project_1.srcs/sources_1/bd/design_1/ipshared/7e3a/hdl"
mig_7series_v4_0_ddr_byte_lane.v,verilog,xil_defaultlib,../../../bd/design_1/ip/design_1_mig_7series_0_0/design_1_mig_7series_0_0/user_design/rtl/phy/mig_7series_v4_0_ddr_byte_lane.v,incdir="../../../../project_1.srcs/sources_1/bd/design_1/ipshared/100a"incdir="../../../../project_1.srcs/sources_1/bd/design_1/ipshared/7e3a/hdl"incdir="../../../../project_1.srcs/sources_1/bd/design_1/ipshared/100a"incdir="../../../../project_1.srcs/sources_1/bd/design_1/ipshared/7e3a/hdl"
mig_7series_v4_0_ddr_calib_top.v,verilog,xil_defaultlib,../../../bd/design_1/ip/design_1_mig_7series_0_0/design_1_mig_7series_0_0/user_design/rtl/phy/mig_7series_v4_0_ddr_calib_top.v,incdir="../../../../project_1.srcs/sources_1/bd/design_1/ipshared/100a"incdir="../../../../project_1.srcs/sources_1/bd/design_1/ipshared/7e3a/hdl"incdir="../../../../project_1.srcs/sources_1/bd/design_1/ipshared/100a"incdir="../../../../project_1.srcs/sources_1/bd/design_1/ipshared/7e3a/hdl"
mig_7series_v4_0_ddr_if_post_fifo.v,verilog,xil_defaultlib,../../../bd/design_1/ip/design_1_mig_7series_0_0/design_1_mig_7series_0_0/user_design/rtl/phy/mig_7series_v4_0_ddr_if_post_fifo.v,incdir="../../../../project_1.srcs/sources_1/bd/design_1/ipshared/100a"incdir="../../../../project_1.srcs/sources_1/bd/design_1/ipshared/7e3a/hdl"incdir="../../../../project_1.srcs/sources_1/bd/design_1/ipshared/100a"incdir="../../../../project_1.srcs/sources_1/bd/design_1/ipshared/7e3a/hdl"
mig_7series_v4_0_ddr_mc_phy.v,verilog,xil_defaultlib,../../../bd/design_1/ip/design_1_mig_7series_0_0/design_1_mig_7series_0_0/user_design/rtl/phy/mig_7series_v4_0_ddr_mc_phy.v,incdir="../../../../project_1.srcs/sources_1/bd/design_1/ipshared/100a"incdir="../../../../project_1.srcs/sources_1/bd/design_1/ipshared/7e3a/hdl"incdir="../../../../project_1.srcs/sources_1/bd/design_1/ipshared/100a"incdir="../../../../project_1.srcs/sources_1/bd/design_1/ipshared/7e3a/hdl"
mig_7series_v4_0_ddr_mc_phy_wrapper.v,verilog,xil_defaultlib,../../../bd/design_1/ip/design_1_mig_7series_0_0/design_1_mig_7series_0_0/user_design/rtl/phy/mig_7series_v4_0_ddr_mc_phy_wrapper.v,incdir="../../../../project_1.srcs/sources_1/bd/design_1/ipshared/100a"incdir="../../../../project_1.srcs/sources_1/bd/design_1/ipshared/7e3a/hdl"incdir="../../../../project_1.srcs/sources_1/bd/design_1/ipshared/100a"incdir="../../../../project_1.srcs/sources_1/bd/design_1/ipshared/7e3a/hdl"
mig_7series_v4_0_ddr_of_pre_fifo.v,verilog,xil_defaultlib,../../../bd/design_1/ip/design_1_mig_7series_0_0/design_1_mig_7series_0_0/user_design/rtl/phy/mig_7series_v4_0_ddr_of_pre_fifo.v,incdir="../../../../project_1.srcs/sources_1/bd/design_1/ipshared/100a"incdir="../../../../project_1.srcs/sources_1/bd/design_1/ipshared/7e3a/hdl"incdir="../../../../project_1.srcs/sources_1/bd/design_1/ipshared/100a"incdir="../../../../project_1.srcs/sources_1/bd/design_1/ipshared/7e3a/hdl"
mig_7series_v4_0_ddr_phy_4lanes.v,verilog,xil_defaultlib,../../../bd/design_1/ip/design_1_mig_7series_0_0/design_1_mig_7series_0_0/user_design/rtl/phy/mig_7series_v4_0_ddr_phy_4lanes.v,incdir="../../../../project_1.srcs/sources_1/bd/design_1/ipshared/100a"incdir="../../../../project_1.srcs/sources_1/bd/design_1/ipshared/7e3a/hdl"incdir="../../../../project_1.srcs/sources_1/bd/design_1/ipshared/100a"incdir="../../../../project_1.srcs/sources_1/bd/design_1/ipshared/7e3a/hdl"
mig_7series_v4_0_ddr_phy_ck_addr_cmd_delay.v,verilog,xil_defaultlib,../../../bd/design_1/ip/design_1_mig_7series_0_0/design_1_mig_7series_0_0/user_design/rtl/phy/mig_7series_v4_0_ddr_phy_ck_addr_cmd_delay.v,incdir="../../../../project_1.srcs/sources_1/bd/design_1/ipshared/100a"incdir="../../../../project_1.srcs/sources_1/bd/design_1/ipshared/7e3a/hdl"incdir="../../../../project_1.srcs/sources_1/bd/design_1/ipshared/100a"incdir="../../../../project_1.srcs/sources_1/bd/design_1/ipshared/7e3a/hdl"
mig_7series_v4_0_ddr_phy_dqs_found_cal.v,verilog,xil_defaultlib,../../../bd/design_1/ip/design_1_mig_7series_0_0/design_1_mig_7series_0_0/user_design/rtl/phy/mig_7series_v4_0_ddr_phy_dqs_found_cal.v,incdir="../../../../project_1.srcs/sources_1/bd/design_1/ipshared/100a"incdir="../../../../project_1.srcs/sources_1/bd/design_1/ipshared/7e3a/hdl"incdir="../../../../project_1.srcs/sources_1/bd/design_1/ipshared/100a"incdir="../../../../project_1.srcs/sources_1/bd/design_1/ipshared/7e3a/hdl"
mig_7series_v4_0_ddr_phy_dqs_found_cal_hr.v,verilog,xil_defaultlib,../../../bd/design_1/ip/design_1_mig_7series_0_0/design_1_mig_7series_0_0/user_design/rtl/phy/mig_7series_v4_0_ddr_phy_dqs_found_cal_hr.v,incdir="../../../../project_1.srcs/sources_1/bd/design_1/ipshared/100a"incdir="../../../../project_1.srcs/sources_1/bd/design_1/ipshared/7e3a/hdl"incdir="../../../../project_1.srcs/sources_1/bd/design_1/ipshared/100a"incdir="../../../../project_1.srcs/sources_1/bd/design_1/ipshared/7e3a/hdl"
mig_7series_v4_0_ddr_phy_init.v,verilog,xil_defaultlib,../../../bd/design_1/ip/design_1_mig_7series_0_0/design_1_mig_7series_0_0/user_design/rtl/phy/mig_7series_v4_0_ddr_phy_init.v,incdir="../../../../project_1.srcs/sources_1/bd/design_1/ipshared/100a"incdir="../../../../project_1.srcs/sources_1/bd/design_1/ipshared/7e3a/hdl"incdir="../../../../project_1.srcs/sources_1/bd/design_1/ipshared/100a"incdir="../../../../project_1.srcs/sources_1/bd/design_1/ipshared/7e3a/hdl"
mig_7series_v4_0_ddr_phy_ocd_cntlr.v,verilog,xil_defaultlib,../../../bd/design_1/ip/design_1_mig_7series_0_0/design_1_mig_7series_0_0/user_design/rtl/phy/mig_7series_v4_0_ddr_phy_ocd_cntlr.v,incdir="../../../../project_1.srcs/sources_1/bd/design_1/ipshared/100a"incdir="../../../../project_1.srcs/sources_1/bd/design_1/ipshared/7e3a/hdl"incdir="../../../../project_1.srcs/sources_1/bd/design_1/ipshared/100a"incdir="../../../../project_1.srcs/sources_1/bd/design_1/ipshared/7e3a/hdl"
mig_7series_v4_0_ddr_phy_ocd_data.v,verilog,xil_defaultlib,../../../bd/design_1/ip/design_1_mig_7series_0_0/design_1_mig_7series_0_0/user_design/rtl/phy/mig_7series_v4_0_ddr_phy_ocd_data.v,incdir="../../../../project_1.srcs/sources_1/bd/design_1/ipshared/100a"incdir="../../../../project_1.srcs/sources_1/bd/design_1/ipshared/7e3a/hdl"incdir="../../../../project_1.srcs/sources_1/bd/design_1/ipshared/100a"incdir="../../../../project_1.srcs/sources_1/bd/design_1/ipshared/7e3a/hdl"
mig_7series_v4_0_ddr_phy_ocd_edge.v,verilog,xil_defaultlib,../../../bd/design_1/ip/design_1_mig_7series_0_0/design_1_mig_7series_0_0/user_design/rtl/phy/mig_7series_v4_0_ddr_phy_ocd_edge.v,incdir="../../../../project_1.srcs/sources_1/bd/design_1/ipshared/100a"incdir="../../../../project_1.srcs/sources_1/bd/design_1/ipshared/7e3a/hdl"incdir="../../../../project_1.srcs/sources_1/bd/design_1/ipshared/100a"incdir="../../../../project_1.srcs/sources_1/bd/design_1/ipshared/7e3a/hdl"
mig_7series_v4_0_ddr_phy_ocd_lim.v,verilog,xil_defaultlib,../../../bd/design_1/ip/design_1_mig_7series_0_0/design_1_mig_7series_0_0/user_design/rtl/phy/mig_7series_v4_0_ddr_phy_ocd_lim.v,incdir="../../../../project_1.srcs/sources_1/bd/design_1/ipshared/100a"incdir="../../../../project_1.srcs/sources_1/bd/design_1/ipshared/7e3a/hdl"incdir="../../../../project_1.srcs/sources_1/bd/design_1/ipshared/100a"incdir="../../../../project_1.srcs/sources_1/bd/design_1/ipshared/7e3a/hdl"
mig_7series_v4_0_ddr_phy_ocd_mux.v,verilog,xil_defaultlib,../../../bd/design_1/ip/design_1_mig_7series_0_0/design_1_mig_7series_0_0/user_design/rtl/phy/mig_7series_v4_0_ddr_phy_ocd_mux.v,incdir="../../../../project_1.srcs/sources_1/bd/design_1/ipshared/100a"incdir="../../../../project_1.srcs/sources_1/bd/design_1/ipshared/7e3a/hdl"incdir="../../../../project_1.srcs/sources_1/bd/design_1/ipshared/100a"incdir="../../../../project_1.srcs/sources_1/bd/design_1/ipshared/7e3a/hdl"
mig_7series_v4_0_ddr_phy_ocd_po_cntlr.v,verilog,xil_defaultlib,../../../bd/design_1/ip/design_1_mig_7series_0_0/design_1_mig_7series_0_0/user_design/rtl/phy/mig_7series_v4_0_ddr_phy_ocd_po_cntlr.v,incdir="../../../../project_1.srcs/sources_1/bd/design_1/ipshared/100a"incdir="../../../../project_1.srcs/sources_1/bd/design_1/ipshared/7e3a/hdl"incdir="../../../../project_1.srcs/sources_1/bd/design_1/ipshared/100a"incdir="../../../../project_1.srcs/sources_1/bd/design_1/ipshared/7e3a/hdl"
mig_7series_v4_0_ddr_phy_ocd_samp.v,verilog,xil_defaultlib,../../../bd/design_1/ip/design_1_mig_7series_0_0/design_1_mig_7series_0_0/user_design/rtl/phy/mig_7series_v4_0_ddr_phy_ocd_samp.v,incdir="../../../../project_1.srcs/sources_1/bd/design_1/ipshared/100a"incdir="../../../../project_1.srcs/sources_1/bd/design_1/ipshared/7e3a/hdl"incdir="../../../../project_1.srcs/sources_1/bd/design_1/ipshared/100a"incdir="../../../../project_1.srcs/sources_1/bd/design_1/ipshared/7e3a/hdl"
mig_7series_v4_0_ddr_phy_oclkdelay_cal.v,verilog,xil_defaultlib,../../../bd/design_1/ip/design_1_mig_7series_0_0/design_1_mig_7series_0_0/user_design/rtl/phy/mig_7series_v4_0_ddr_phy_oclkdelay_cal.v,incdir="../../../../project_1.srcs/sources_1/bd/design_1/ipshared/100a"incdir="../../../../project_1.srcs/sources_1/bd/design_1/ipshared/7e3a/hdl"incdir="../../../../project_1.srcs/sources_1/bd/design_1/ipshared/100a"incdir="../../../../project_1.srcs/sources_1/bd/design_1/ipshared/7e3a/hdl"
mig_7series_v4_0_ddr_phy_prbs_rdlvl.v,verilog,xil_defaultlib,../../../bd/design_1/ip/design_1_mig_7series_0_0/design_1_mig_7series_0_0/user_design/rtl/phy/mig_7series_v4_0_ddr_phy_prbs_rdlvl.v,incdir="../../../../project_1.srcs/sources_1/bd/design_1/ipshared/100a"incdir="../../../../project_1.srcs/sources_1/bd/design_1/ipshared/7e3a/hdl"incdir="../../../../project_1.srcs/sources_1/bd/design_1/ipshared/100a"incdir="../../../../project_1.srcs/sources_1/bd/design_1/ipshared/7e3a/hdl"
mig_7series_v4_0_ddr_phy_rdlvl.v,verilog,xil_defaultlib,../../../bd/design_1/ip/design_1_mig_7series_0_0/design_1_mig_7series_0_0/user_design/rtl/phy/mig_7series_v4_0_ddr_phy_rdlvl.v,incdir="../../../../project_1.srcs/sources_1/bd/design_1/ipshared/100a"incdir="../../../../project_1.srcs/sources_1/bd/design_1/ipshared/7e3a/hdl"incdir="../../../../project_1.srcs/sources_1/bd/design_1/ipshared/100a"incdir="../../../../project_1.srcs/sources_1/bd/design_1/ipshared/7e3a/hdl"
mig_7series_v4_0_ddr_phy_tempmon.v,verilog,xil_defaultlib,../../../bd/design_1/ip/design_1_mig_7series_0_0/design_1_mig_7series_0_0/user_design/rtl/phy/mig_7series_v4_0_ddr_phy_tempmon.v,incdir="../../../../project_1.srcs/sources_1/bd/design_1/ipshared/100a"incdir="../../../../project_1.srcs/sources_1/bd/design_1/ipshared/7e3a/hdl"incdir="../../../../project_1.srcs/sources_1/bd/design_1/ipshared/100a"incdir="../../../../project_1.srcs/sources_1/bd/design_1/ipshared/7e3a/hdl"
mig_7series_v4_0_ddr_phy_top.v,verilog,xil_defaultlib,../../../bd/design_1/ip/design_1_mig_7series_0_0/design_1_mig_7series_0_0/user_design/rtl/phy/mig_7series_v4_0_ddr_phy_top.v,incdir="../../../../project_1.srcs/sources_1/bd/design_1/ipshared/100a"incdir="../../../../project_1.srcs/sources_1/bd/design_1/ipshared/7e3a/hdl"incdir="../../../../project_1.srcs/sources_1/bd/design_1/ipshared/100a"incdir="../../../../project_1.srcs/sources_1/bd/design_1/ipshared/7e3a/hdl"
mig_7series_v4_0_ddr_phy_wrcal.v,verilog,xil_defaultlib,../../../bd/design_1/ip/design_1_mig_7series_0_0/design_1_mig_7series_0_0/user_design/rtl/phy/mig_7series_v4_0_ddr_phy_wrcal.v,incdir="../../../../project_1.srcs/sources_1/bd/design_1/ipshared/100a"incdir="../../../../project_1.srcs/sources_1/bd/design_1/ipshared/7e3a/hdl"incdir="../../../../project_1.srcs/sources_1/bd/design_1/ipshared/100a"incdir="../../../../project_1.srcs/sources_1/bd/design_1/ipshared/7e3a/hdl"
mig_7series_v4_0_ddr_phy_wrlvl.v,verilog,xil_defaultlib,../../../bd/design_1/ip/design_1_mig_7series_0_0/design_1_mig_7series_0_0/user_design/rtl/phy/mig_7series_v4_0_ddr_phy_wrlvl.v,incdir="../../../../project_1.srcs/sources_1/bd/design_1/ipshared/100a"incdir="../../../../project_1.srcs/sources_1/bd/design_1/ipshared/7e3a/hdl"incdir="../../../../project_1.srcs/sources_1/bd/design_1/ipshared/100a"incdir="../../../../project_1.srcs/sources_1/bd/design_1/ipshared/7e3a/hdl"
mig_7series_v4_0_ddr_phy_wrlvl_off_delay.v,verilog,xil_defaultlib,../../../bd/design_1/ip/design_1_mig_7series_0_0/design_1_mig_7series_0_0/user_design/rtl/phy/mig_7series_v4_0_ddr_phy_wrlvl_off_delay.v,incdir="../../../../project_1.srcs/sources_1/bd/design_1/ipshared/100a"incdir="../../../../project_1.srcs/sources_1/bd/design_1/ipshared/7e3a/hdl"incdir="../../../../project_1.srcs/sources_1/bd/design_1/ipshared/100a"incdir="../../../../project_1.srcs/sources_1/bd/design_1/ipshared/7e3a/hdl"
mig_7series_v4_0_ddr_prbs_gen.v,verilog,xil_defaultlib,../../../bd/design_1/ip/design_1_mig_7series_0_0/design_1_mig_7series_0_0/user_design/rtl/phy/mig_7series_v4_0_ddr_prbs_gen.v,incdir="../../../../project_1.srcs/sources_1/bd/design_1/ipshared/100a"incdir="../../../../project_1.srcs/sources_1/bd/design_1/ipshared/7e3a/hdl"incdir="../../../../project_1.srcs/sources_1/bd/design_1/ipshared/100a"incdir="../../../../project_1.srcs/sources_1/bd/design_1/ipshared/7e3a/hdl"
mig_7series_v4_0_ddr_skip_calib_tap.v,verilog,xil_defaultlib,../../../bd/design_1/ip/design_1_mig_7series_0_0/design_1_mig_7series_0_0/user_design/rtl/phy/mig_7series_v4_0_ddr_skip_calib_tap.v,incdir="../../../../project_1.srcs/sources_1/bd/design_1/ipshared/100a"incdir="../../../../project_1.srcs/sources_1/bd/design_1/ipshared/7e3a/hdl"incdir="../../../../project_1.srcs/sources_1/bd/design_1/ipshared/100a"incdir="../../../../project_1.srcs/sources_1/bd/design_1/ipshared/7e3a/hdl"
mig_7series_v4_0_poc_cc.v,verilog,xil_defaultlib,../../../bd/design_1/ip/design_1_mig_7series_0_0/design_1_mig_7series_0_0/user_design/rtl/phy/mig_7series_v4_0_poc_cc.v,incdir="../../../../project_1.srcs/sources_1/bd/design_1/ipshared/100a"incdir="../../../../project_1.srcs/sources_1/bd/design_1/ipshared/7e3a/hdl"incdir="../../../../project_1.srcs/sources_1/bd/design_1/ipshared/100a"incdir="../../../../project_1.srcs/sources_1/bd/design_1/ipshared/7e3a/hdl"
mig_7series_v4_0_poc_edge_store.v,verilog,xil_defaultlib,../../../bd/design_1/ip/design_1_mig_7series_0_0/design_1_mig_7series_0_0/user_design/rtl/phy/mig_7series_v4_0_poc_edge_store.v,incdir="../../../../project_1.srcs/sources_1/bd/design_1/ipshared/100a"incdir="../../../../project_1.srcs/sources_1/bd/design_1/ipshared/7e3a/hdl"incdir="../../../../project_1.srcs/sources_1/bd/design_1/ipshared/100a"incdir="../../../../project_1.srcs/sources_1/bd/design_1/ipshared/7e3a/hdl"
mig_7series_v4_0_poc_meta.v,verilog,xil_defaultlib,../../../bd/design_1/ip/design_1_mig_7series_0_0/design_1_mig_7series_0_0/user_design/rtl/phy/mig_7series_v4_0_poc_meta.v,incdir="../../../../project_1.srcs/sources_1/bd/design_1/ipshared/100a"incdir="../../../../project_1.srcs/sources_1/bd/design_1/ipshared/7e3a/hdl"incdir="../../../../project_1.srcs/sources_1/bd/design_1/ipshared/100a"incdir="../../../../project_1.srcs/sources_1/bd/design_1/ipshared/7e3a/hdl"
mig_7series_v4_0_poc_pd.v,verilog,xil_defaultlib,../../../bd/design_1/ip/design_1_mig_7series_0_0/design_1_mig_7series_0_0/user_design/rtl/phy/mig_7series_v4_0_poc_pd.v,incdir="../../../../project_1.srcs/sources_1/bd/design_1/ipshared/100a"incdir="../../../../project_1.srcs/sources_1/bd/design_1/ipshared/7e3a/hdl"incdir="../../../../project_1.srcs/sources_1/bd/design_1/ipshared/100a"incdir="../../../../project_1.srcs/sources_1/bd/design_1/ipshared/7e3a/hdl"
mig_7series_v4_0_poc_tap_base.v,verilog,xil_defaultlib,../../../bd/design_1/ip/design_1_mig_7series_0_0/design_1_mig_7series_0_0/user_design/rtl/phy/mig_7series_v4_0_poc_tap_base.v,incdir="../../../../project_1.srcs/sources_1/bd/design_1/ipshared/100a"incdir="../../../../project_1.srcs/sources_1/bd/design_1/ipshared/7e3a/hdl"incdir="../../../../project_1.srcs/sources_1/bd/design_1/ipshared/100a"incdir="../../../../project_1.srcs/sources_1/bd/design_1/ipshared/7e3a/hdl"
mig_7series_v4_0_poc_top.v,verilog,xil_defaultlib,../../../bd/design_1/ip/design_1_mig_7series_0_0/design_1_mig_7series_0_0/user_design/rtl/phy/mig_7series_v4_0_poc_top.v,incdir="../../../../project_1.srcs/sources_1/bd/design_1/ipshared/100a"incdir="../../../../project_1.srcs/sources_1/bd/design_1/ipshared/7e3a/hdl"incdir="../../../../project_1.srcs/sources_1/bd/design_1/ipshared/100a"incdir="../../../../project_1.srcs/sources_1/bd/design_1/ipshared/7e3a/hdl"
mig_7series_v4_0_ui_cmd.v,verilog,xil_defaultlib,../../../bd/design_1/ip/design_1_mig_7series_0_0/design_1_mig_7series_0_0/user_design/rtl/ui/mig_7series_v4_0_ui_cmd.v,incdir="../../../../project_1.srcs/sources_1/bd/design_1/ipshared/100a"incdir="../../../../project_1.srcs/sources_1/bd/design_1/ipshared/7e3a/hdl"incdir="../../../../project_1.srcs/sources_1/bd/design_1/ipshared/100a"incdir="../../../../project_1.srcs/sources_1/bd/design_1/ipshared/7e3a/hdl"
mig_7series_v4_0_ui_rd_data.v,verilog,xil_defaultlib,../../../bd/design_1/ip/design_1_mig_7series_0_0/design_1_mig_7series_0_0/user_design/rtl/ui/mig_7series_v4_0_ui_rd_data.v,incdir="../../../../project_1.srcs/sources_1/bd/design_1/ipshared/100a"incdir="../../../../project_1.srcs/sources_1/bd/design_1/ipshared/7e3a/hdl"incdir="../../../../project_1.srcs/sources_1/bd/design_1/ipshared/100a"incdir="../../../../project_1.srcs/sources_1/bd/design_1/ipshared/7e3a/hdl"
mig_7series_v4_0_ui_top.v,verilog,xil_defaultlib,../../../bd/design_1/ip/design_1_mig_7series_0_0/design_1_mig_7series_0_0/user_design/rtl/ui/mig_7series_v4_0_ui_top.v,incdir="../../../../project_1.srcs/sources_1/bd/design_1/ipshared/100a"incdir="../../../../project_1.srcs/sources_1/bd/design_1/ipshared/7e3a/hdl"incdir="../../../../project_1.srcs/sources_1/bd/design_1/ipshared/100a"incdir="../../../../project_1.srcs/sources_1/bd/design_1/ipshared/7e3a/hdl"
mig_7series_v4_0_ui_wr_data.v,verilog,xil_defaultlib,../../../bd/design_1/ip/design_1_mig_7series_0_0/design_1_mig_7series_0_0/user_design/rtl/ui/mig_7series_v4_0_ui_wr_data.v,incdir="../../../../project_1.srcs/sources_1/bd/design_1/ipshared/100a"incdir="../../../../project_1.srcs/sources_1/bd/design_1/ipshared/7e3a/hdl"incdir="../../../../project_1.srcs/sources_1/bd/design_1/ipshared/100a"incdir="../../../../project_1.srcs/sources_1/bd/design_1/ipshared/7e3a/hdl"
design_1_mig_7series_0_0_mig_sim.v,verilog,xil_defaultlib,../../../bd/design_1/ip/design_1_mig_7series_0_0/design_1_mig_7series_0_0/user_design/rtl/design_1_mig_7series_0_0_mig_sim.v,incdir="../../../../project_1.srcs/sources_1/bd/design_1/ipshared/100a"incdir="../../../../project_1.srcs/sources_1/bd/design_1/ipshared/7e3a/hdl"incdir="../../../../project_1.srcs/sources_1/bd/design_1/ipshared/100a"incdir="../../../../project_1.srcs/sources_1/bd/design_1/ipshared/7e3a/hdl"
design_1_mig_7series_0_0.v,verilog,xil_defaultlib,../../../bd/design_1/ip/design_1_mig_7series_0_0/design_1_mig_7series_0_0/user_design/rtl/design_1_mig_7series_0_0.v,incdir="../../../../project_1.srcs/sources_1/bd/design_1/ipshared/100a"incdir="../../../../project_1.srcs/sources_1/bd/design_1/ipshared/7e3a/hdl"incdir="../../../../project_1.srcs/sources_1/bd/design_1/ipshared/100a"incdir="../../../../project_1.srcs/sources_1/bd/design_1/ipshared/7e3a/hdl"
proc_sys_reset_v5_0_vh_rfs.vhd,vhdl,proc_sys_reset_v5_0_10,../../../../project_1.srcs/sources_1/bd/design_1/ipshared/04b4/hdl/proc_sys_reset_v5_0_vh_rfs.vhd,incdir="../../../../project_1.srcs/sources_1/bd/design_1/ipshared/100a"incdir="../../../../project_1.srcs/sources_1/bd/design_1/ipshared/7e3a/hdl"incdir="../../../../project_1.srcs/sources_1/bd/design_1/ipshared/100a"incdir="../../../../project_1.srcs/sources_1/bd/design_1/ipshared/7e3a/hdl"
design_1_rst_mig_7series_0_83M_0.vhd,vhdl,xil_defaultlib,../../../bd/design_1/ip/design_1_rst_mig_7series_0_83M_0/sim/design_1_rst_mig_7series_0_83M_0.vhd,incdir="../../../../project_1.srcs/sources_1/bd/design_1/ipshared/100a"incdir="../../../../project_1.srcs/sources_1/bd/design_1/ipshared/7e3a/hdl"incdir="../../../../project_1.srcs/sources_1/bd/design_1/ipshared/100a"incdir="../../../../project_1.srcs/sources_1/bd/design_1/ipshared/7e3a/hdl"
generic_baseblocks_v2_1_vl_rfs.v,verilog,generic_baseblocks_v2_1_0,../../../../project_1.srcs/sources_1/bd/design_1/ipshared/7ee0/hdl/generic_baseblocks_v2_1_vl_rfs.v,incdir="../../../../project_1.srcs/sources_1/bd/design_1/ipshared/100a"incdir="../../../../project_1.srcs/sources_1/bd/design_1/ipshared/7e3a/hdl"incdir="../../../../project_1.srcs/sources_1/bd/design_1/ipshared/100a"incdir="../../../../project_1.srcs/sources_1/bd/design_1/ipshared/7e3a/hdl"
axi_infrastructure_v1_1_vl_rfs.v,verilog,axi_infrastructure_v1_1_0,../../../../project_1.srcs/sources_1/bd/design_1/ipshared/7e3a/hdl/axi_infrastructure_v1_1_vl_rfs.v,incdir="../../../../project_1.srcs/sources_1/bd/design_1/ipshared/100a"incdir="../../../../project_1.srcs/sources_1/bd/design_1/ipshared/7e3a/hdl"incdir="../../../../project_1.srcs/sources_1/bd/design_1/ipshared/100a"incdir="../../../../project_1.srcs/sources_1/bd/design_1/ipshared/7e3a/hdl"
axi_register_slice_v2_1_vl_rfs.v,verilog,axi_register_slice_v2_1_11,../../../../project_1.srcs/sources_1/bd/design_1/ipshared/0b6b/hdl/axi_register_slice_v2_1_vl_rfs.v,incdir="../../../../project_1.srcs/sources_1/bd/design_1/ipshared/100a"incdir="../../../../project_1.srcs/sources_1/bd/design_1/ipshared/7e3a/hdl"incdir="../../../../project_1.srcs/sources_1/bd/design_1/ipshared/100a"incdir="../../../../project_1.srcs/sources_1/bd/design_1/ipshared/7e3a/hdl"
axi_data_fifo_v2_1_vl_rfs.v,verilog,axi_data_fifo_v2_1_10,../../../../project_1.srcs/sources_1/bd/design_1/ipshared/39ba/hdl/axi_data_fifo_v2_1_vl_rfs.v,incdir="../../../../project_1.srcs/sources_1/bd/design_1/ipshared/100a"incdir="../../../../project_1.srcs/sources_1/bd/design_1/ipshared/7e3a/hdl"incdir="../../../../project_1.srcs/sources_1/bd/design_1/ipshared/100a"incdir="../../../../project_1.srcs/sources_1/bd/design_1/ipshared/7e3a/hdl"
axi_crossbar_v2_1_vl_rfs.v,verilog,axi_crossbar_v2_1_12,../../../../project_1.srcs/sources_1/bd/design_1/ipshared/896d/hdl/axi_crossbar_v2_1_vl_rfs.v,incdir="../../../../project_1.srcs/sources_1/bd/design_1/ipshared/100a"incdir="../../../../project_1.srcs/sources_1/bd/design_1/ipshared/7e3a/hdl"incdir="../../../../project_1.srcs/sources_1/bd/design_1/ipshared/100a"incdir="../../../../project_1.srcs/sources_1/bd/design_1/ipshared/7e3a/hdl"
design_1_xbar_0.v,verilog,xil_defaultlib,../../../bd/design_1/ip/design_1_xbar_0/sim/design_1_xbar_0.v,incdir="../../../../project_1.srcs/sources_1/bd/design_1/ipshared/100a"incdir="../../../../project_1.srcs/sources_1/bd/design_1/ipshared/7e3a/hdl"incdir="../../../../project_1.srcs/sources_1/bd/design_1/ipshared/100a"incdir="../../../../project_1.srcs/sources_1/bd/design_1/ipshared/7e3a/hdl"
design_1_xbar_1.v,verilog,xil_defaultlib,../../../bd/design_1/ip/design_1_xbar_1/sim/design_1_xbar_1.v,incdir="../../../../project_1.srcs/sources_1/bd/design_1/ipshared/100a"incdir="../../../../project_1.srcs/sources_1/bd/design_1/ipshared/7e3a/hdl"incdir="../../../../project_1.srcs/sources_1/bd/design_1/ipshared/100a"incdir="../../../../project_1.srcs/sources_1/bd/design_1/ipshared/7e3a/hdl"
design_1_axi_timer_0_1.vhd,vhdl,xil_defaultlib,../../../bd/design_1/ip/design_1_axi_timer_0_1/sim/design_1_axi_timer_0_1.vhd,incdir="../../../../project_1.srcs/sources_1/bd/design_1/ipshared/100a"incdir="../../../../project_1.srcs/sources_1/bd/design_1/ipshared/7e3a/hdl"incdir="../../../../project_1.srcs/sources_1/bd/design_1/ipshared/100a"incdir="../../../../project_1.srcs/sources_1/bd/design_1/ipshared/7e3a/hdl"
design_1_axi_gpio_1_1.vhd,vhdl,xil_defaultlib,../../../bd/design_1/ip/design_1_axi_gpio_1_1/sim/design_1_axi_gpio_1_1.vhd,incdir="../../../../project_1.srcs/sources_1/bd/design_1/ipshared/100a"incdir="../../../../project_1.srcs/sources_1/bd/design_1/ipshared/7e3a/hdl"incdir="../../../../project_1.srcs/sources_1/bd/design_1/ipshared/100a"incdir="../../../../project_1.srcs/sources_1/bd/design_1/ipshared/7e3a/hdl"
design_1_axi_uartlite_2_0.vhd,vhdl,xil_defaultlib,../../../bd/design_1/ip/design_1_axi_uartlite_2_0/sim/design_1_axi_uartlite_2_0.vhd,incdir="../../../../project_1.srcs/sources_1/bd/design_1/ipshared/100a"incdir="../../../../project_1.srcs/sources_1/bd/design_1/ipshared/7e3a/hdl"incdir="../../../../project_1.srcs/sources_1/bd/design_1/ipshared/100a"incdir="../../../../project_1.srcs/sources_1/bd/design_1/ipshared/7e3a/hdl"
dist_mem_gen_v8_0.v,verilog,dist_mem_gen_v8_0_11,../../../../project_1.srcs/sources_1/bd/design_1/ipshared/ec0d/simulation/dist_mem_gen_v8_0.v,incdir="../../../../project_1.srcs/sources_1/bd/design_1/ipshared/100a"incdir="../../../../project_1.srcs/sources_1/bd/design_1/ipshared/7e3a/hdl"incdir="../../../../project_1.srcs/sources_1/bd/design_1/ipshared/100a"incdir="../../../../project_1.srcs/sources_1/bd/design_1/ipshared/7e3a/hdl"
axi_quad_spi_v3_2_rfs.vhd,vhdl,axi_quad_spi_v3_2_10,../../../../project_1.srcs/sources_1/bd/design_1/ipshared/e7ca/hdl/axi_quad_spi_v3_2_rfs.vhd,incdir="../../../../project_1.srcs/sources_1/bd/design_1/ipshared/100a"incdir="../../../../project_1.srcs/sources_1/bd/design_1/ipshared/7e3a/hdl"incdir="../../../../project_1.srcs/sources_1/bd/design_1/ipshared/100a"incdir="../../../../project_1.srcs/sources_1/bd/design_1/ipshared/7e3a/hdl"
design_1_axi_quad_spi_0_0.vhd,vhdl,xil_defaultlib,../../../bd/design_1/ip/design_1_axi_quad_spi_0_0/sim/design_1_axi_quad_spi_0_0.vhd,incdir="../../../../project_1.srcs/sources_1/bd/design_1/ipshared/100a"incdir="../../../../project_1.srcs/sources_1/bd/design_1/ipshared/7e3a/hdl"incdir="../../../../project_1.srcs/sources_1/bd/design_1/ipshared/100a"incdir="../../../../project_1.srcs/sources_1/bd/design_1/ipshared/7e3a/hdl"
design_1_axi_quad_spi_0_1.vhd,vhdl,xil_defaultlib,../../../bd/design_1/ip/design_1_axi_quad_spi_0_1/sim/design_1_axi_quad_spi_0_1.vhd,incdir="../../../../project_1.srcs/sources_1/bd/design_1/ipshared/100a"incdir="../../../../project_1.srcs/sources_1/bd/design_1/ipshared/7e3a/hdl"incdir="../../../../project_1.srcs/sources_1/bd/design_1/ipshared/100a"incdir="../../../../project_1.srcs/sources_1/bd/design_1/ipshared/7e3a/hdl"
design_1_axi_uartlite_2_1.vhd,vhdl,xil_defaultlib,../../../bd/design_1/ip/design_1_axi_uartlite_2_1/sim/design_1_axi_uartlite_2_1.vhd,incdir="../../../../project_1.srcs/sources_1/bd/design_1/ipshared/100a"incdir="../../../../project_1.srcs/sources_1/bd/design_1/ipshared/7e3a/hdl"incdir="../../../../project_1.srcs/sources_1/bd/design_1/ipshared/100a"incdir="../../../../project_1.srcs/sources_1/bd/design_1/ipshared/7e3a/hdl"
design_1_axi_uartlite_3_0.vhd,vhdl,xil_defaultlib,../../../bd/design_1/ip/design_1_axi_uartlite_3_0/sim/design_1_axi_uartlite_3_0.vhd,incdir="../../../../project_1.srcs/sources_1/bd/design_1/ipshared/100a"incdir="../../../../project_1.srcs/sources_1/bd/design_1/ipshared/7e3a/hdl"incdir="../../../../project_1.srcs/sources_1/bd/design_1/ipshared/100a"incdir="../../../../project_1.srcs/sources_1/bd/design_1/ipshared/7e3a/hdl"
design_1_axi_uartlite_Highgauge_0.vhd,vhdl,xil_defaultlib,../../../bd/design_1/ip/design_1_axi_uartlite_Highgauge_0/sim/design_1_axi_uartlite_Highgauge_0.vhd,incdir="../../../../project_1.srcs/sources_1/bd/design_1/ipshared/100a"incdir="../../../../project_1.srcs/sources_1/bd/design_1/ipshared/7e3a/hdl"incdir="../../../../project_1.srcs/sources_1/bd/design_1/ipshared/100a"incdir="../../../../project_1.srcs/sources_1/bd/design_1/ipshared/7e3a/hdl"
design_1_axi_uartlite_Highgauge1_0.vhd,vhdl,xil_defaultlib,../../../bd/design_1/ip/design_1_axi_uartlite_Highgauge1_0/sim/design_1_axi_uartlite_Highgauge1_0.vhd,incdir="../../../../project_1.srcs/sources_1/bd/design_1/ipshared/100a"incdir="../../../../project_1.srcs/sources_1/bd/design_1/ipshared/7e3a/hdl"incdir="../../../../project_1.srcs/sources_1/bd/design_1/ipshared/100a"incdir="../../../../project_1.srcs/sources_1/bd/design_1/ipshared/7e3a/hdl"
design_1_axi_uartlite_Spare_0.vhd,vhdl,xil_defaultlib,../../../bd/design_1/ip/design_1_axi_uartlite_Spare_0/sim/design_1_axi_uartlite_Spare_0.vhd,incdir="../../../../project_1.srcs/sources_1/bd/design_1/ipshared/100a"incdir="../../../../project_1.srcs/sources_1/bd/design_1/ipshared/7e3a/hdl"incdir="../../../../project_1.srcs/sources_1/bd/design_1/ipshared/100a"incdir="../../../../project_1.srcs/sources_1/bd/design_1/ipshared/7e3a/hdl"
xlconstant.v,verilog,xil_defaultlib,../../../bd/design_1/ipshared/e147/xlconstant.v,incdir="../../../../project_1.srcs/sources_1/bd/design_1/ipshared/100a"incdir="../../../../project_1.srcs/sources_1/bd/design_1/ipshared/7e3a/hdl"incdir="../../../../project_1.srcs/sources_1/bd/design_1/ipshared/100a"incdir="../../../../project_1.srcs/sources_1/bd/design_1/ipshared/7e3a/hdl"
design_1_xlconstant_0_0.v,verilog,xil_defaultlib,../../../bd/design_1/ip/design_1_xlconstant_0_0/sim/design_1_xlconstant_0_0.v,incdir="../../../../project_1.srcs/sources_1/bd/design_1/ipshared/100a"incdir="../../../../project_1.srcs/sources_1/bd/design_1/ipshared/7e3a/hdl"incdir="../../../../project_1.srcs/sources_1/bd/design_1/ipshared/100a"incdir="../../../../project_1.srcs/sources_1/bd/design_1/ipshared/7e3a/hdl"
design_1.v,verilog,xil_defaultlib,../../../bd/design_1/hdl/design_1.v,incdir="../../../../project_1.srcs/sources_1/bd/design_1/ipshared/100a"incdir="../../../../project_1.srcs/sources_1/bd/design_1/ipshared/7e3a/hdl"incdir="../../../../project_1.srcs/sources_1/bd/design_1/ipshared/100a"incdir="../../../../project_1.srcs/sources_1/bd/design_1/ipshared/7e3a/hdl"
multiplier.vhd,vhdl,xil_defaultlib,../../../bd/design_1/ipshared/c0e5/src/multiplier.vhd,incdir="../../../../project_1.srcs/sources_1/bd/design_1/ipshared/100a"incdir="../../../../project_1.srcs/sources_1/bd/design_1/ipshared/7e3a/hdl"incdir="../../../../project_1.srcs/sources_1/bd/design_1/ipshared/100a"incdir="../../../../project_1.srcs/sources_1/bd/design_1/ipshared/7e3a/hdl"
counter.vhd,vhdl,xil_defaultlib,../../../bd/design_1/ipshared/c0e5/src/counter.vhd,incdir="../../../../project_1.srcs/sources_1/bd/design_1/ipshared/100a"incdir="../../../../project_1.srcs/sources_1/bd/design_1/ipshared/7e3a/hdl"incdir="../../../../project_1.srcs/sources_1/bd/design_1/ipshared/100a"incdir="../../../../project_1.srcs/sources_1/bd/design_1/ipshared/7e3a/hdl"
DI_64bitcounter4_v1_0_S00_AXI.vhd,vhdl,xil_defaultlib,../../../bd/design_1/ipshared/c0e5/hdl/DI_64bitcounter4_v1_0_S00_AXI.vhd,incdir="../../../../project_1.srcs/sources_1/bd/design_1/ipshared/100a"incdir="../../../../project_1.srcs/sources_1/bd/design_1/ipshared/7e3a/hdl"incdir="../../../../project_1.srcs/sources_1/bd/design_1/ipshared/100a"incdir="../../../../project_1.srcs/sources_1/bd/design_1/ipshared/7e3a/hdl"
DI_64bitcounter4_v1_0.vhd,vhdl,xil_defaultlib,../../../bd/design_1/ipshared/c0e5/hdl/DI_64bitcounter4_v1_0.vhd,incdir="../../../../project_1.srcs/sources_1/bd/design_1/ipshared/100a"incdir="../../../../project_1.srcs/sources_1/bd/design_1/ipshared/7e3a/hdl"incdir="../../../../project_1.srcs/sources_1/bd/design_1/ipshared/100a"incdir="../../../../project_1.srcs/sources_1/bd/design_1/ipshared/7e3a/hdl"
design_1_DI_64bitcounter4_0_1.vhd,vhdl,xil_defaultlib,../../../bd/design_1/ip/design_1_DI_64bitcounter4_0_1/sim/design_1_DI_64bitcounter4_0_1.vhd,incdir="../../../../project_1.srcs/sources_1/bd/design_1/ipshared/100a"incdir="../../../../project_1.srcs/sources_1/bd/design_1/ipshared/7e3a/hdl"incdir="../../../../project_1.srcs/sources_1/bd/design_1/ipshared/100a"incdir="../../../../project_1.srcs/sources_1/bd/design_1/ipshared/7e3a/hdl"
design_1_tier2_xbar_0_0.v,verilog,xil_defaultlib,../../../bd/design_1/ip/design_1_tier2_xbar_0_0/sim/design_1_tier2_xbar_0_0.v,incdir="../../../../project_1.srcs/sources_1/bd/design_1/ipshared/100a"incdir="../../../../project_1.srcs/sources_1/bd/design_1/ipshared/7e3a/hdl"incdir="../../../../project_1.srcs/sources_1/bd/design_1/ipshared/100a"incdir="../../../../project_1.srcs/sources_1/bd/design_1/ipshared/7e3a/hdl"
design_1_tier2_xbar_1_0.v,verilog,xil_defaultlib,../../../bd/design_1/ip/design_1_tier2_xbar_1_0/sim/design_1_tier2_xbar_1_0.v,incdir="../../../../project_1.srcs/sources_1/bd/design_1/ipshared/100a"incdir="../../../../project_1.srcs/sources_1/bd/design_1/ipshared/7e3a/hdl"incdir="../../../../project_1.srcs/sources_1/bd/design_1/ipshared/100a"incdir="../../../../project_1.srcs/sources_1/bd/design_1/ipshared/7e3a/hdl"
design_1_tier2_xbar_2_0.v,verilog,xil_defaultlib,../../../bd/design_1/ip/design_1_tier2_xbar_2_0/sim/design_1_tier2_xbar_2_0.v,incdir="../../../../project_1.srcs/sources_1/bd/design_1/ipshared/100a"incdir="../../../../project_1.srcs/sources_1/bd/design_1/ipshared/7e3a/hdl"incdir="../../../../project_1.srcs/sources_1/bd/design_1/ipshared/100a"incdir="../../../../project_1.srcs/sources_1/bd/design_1/ipshared/7e3a/hdl"
axi_protocol_converter_v2_1_vl_rfs.v,verilog,axi_protocol_converter_v2_1_11,../../../../project_1.srcs/sources_1/bd/design_1/ipshared/df1b/hdl/axi_protocol_converter_v2_1_vl_rfs.v,incdir="../../../../project_1.srcs/sources_1/bd/design_1/ipshared/100a"incdir="../../../../project_1.srcs/sources_1/bd/design_1/ipshared/7e3a/hdl"incdir="../../../../project_1.srcs/sources_1/bd/design_1/ipshared/100a"incdir="../../../../project_1.srcs/sources_1/bd/design_1/ipshared/7e3a/hdl"
axi_clock_converter_v2_1_vl_rfs.v,verilog,axi_clock_converter_v2_1_10,../../../../project_1.srcs/sources_1/bd/design_1/ipshared/8479/hdl/axi_clock_converter_v2_1_vl_rfs.v,incdir="../../../../project_1.srcs/sources_1/bd/design_1/ipshared/100a"incdir="../../../../project_1.srcs/sources_1/bd/design_1/ipshared/7e3a/hdl"incdir="../../../../project_1.srcs/sources_1/bd/design_1/ipshared/100a"incdir="../../../../project_1.srcs/sources_1/bd/design_1/ipshared/7e3a/hdl"
axi_dwidth_converter_v2_1_vl_rfs.v,verilog,axi_dwidth_converter_v2_1_11,../../../../project_1.srcs/sources_1/bd/design_1/ipshared/a4c8/hdl/axi_dwidth_converter_v2_1_vl_rfs.v,incdir="../../../../project_1.srcs/sources_1/bd/design_1/ipshared/100a"incdir="../../../../project_1.srcs/sources_1/bd/design_1/ipshared/7e3a/hdl"incdir="../../../../project_1.srcs/sources_1/bd/design_1/ipshared/100a"incdir="../../../../project_1.srcs/sources_1/bd/design_1/ipshared/7e3a/hdl"
design_1_auto_us_0.v,verilog,xil_defaultlib,../../../bd/design_1/ip/design_1_auto_us_0/sim/design_1_auto_us_0.v,incdir="../../../../project_1.srcs/sources_1/bd/design_1/ipshared/100a"incdir="../../../../project_1.srcs/sources_1/bd/design_1/ipshared/7e3a/hdl"incdir="../../../../project_1.srcs/sources_1/bd/design_1/ipshared/100a"incdir="../../../../project_1.srcs/sources_1/bd/design_1/ipshared/7e3a/hdl"
design_1_auto_us_1.v,verilog,xil_defaultlib,../../../bd/design_1/ip/design_1_auto_us_1/sim/design_1_auto_us_1.v,incdir="../../../../project_1.srcs/sources_1/bd/design_1/ipshared/100a"incdir="../../../../project_1.srcs/sources_1/bd/design_1/ipshared/7e3a/hdl"incdir="../../../../project_1.srcs/sources_1/bd/design_1/ipshared/100a"incdir="../../../../project_1.srcs/sources_1/bd/design_1/ipshared/7e3a/hdl"
design_1_auto_pc_0.v,verilog,xil_defaultlib,../../../bd/design_1/ip/design_1_auto_pc_0/sim/design_1_auto_pc_0.v,incdir="../../../../project_1.srcs/sources_1/bd/design_1/ipshared/100a"incdir="../../../../project_1.srcs/sources_1/bd/design_1/ipshared/7e3a/hdl"incdir="../../../../project_1.srcs/sources_1/bd/design_1/ipshared/100a"incdir="../../../../project_1.srcs/sources_1/bd/design_1/ipshared/7e3a/hdl"
glbl.v,Verilog,xil_defaultlib,glbl.v
