Design Route Status
                                               :      # nets :
   ------------------------------------------- : ----------- :
   # of logical nets.......................... :       29630 :
       # of nets not needing routing.......... :       10298 :
           # of internally routed nets........ :        9932 :
           # of nets with no loads............ :         366 :
       # of routable nets..................... :       19332 :
           # of fully routed nets............. :       19332 :
       # of nets with routing errors.......... :           0 :
   ------------------------------------------- : ----------- :

