Design Route Status
                                               :      # nets :
   ------------------------------------------- : ----------- :
   # of logical nets.......................... :         816 :
       # of nets not needing routing.......... :         325 :
           # of internally routed nets........ :         325 :
       # of routable nets..................... :         491 :
           # of fully routed nets............. :         491 :
       # of nets with routing errors.......... :           0 :
   ------------------------------------------- : ----------- :

