vhdl xil_defaultlib "../../../bd/design_1/ip/design_1_axi_ethernetlite_0_0/sim/design_1_axi_ethernetlite_0_0.vhd" 
vhdl xil_defaultlib "../../../bd/design_1/ip/design_1_axi_gpio_0_0/sim/design_1_axi_gpio_0_0.vhd" 
vhdl xil_defaultlib "../../../bd/design_1/ip/design_1_axi_gpio_1_0/sim/design_1_axi_gpio_1_0.vhd" 
vhdl xil_defaultlib "../../../bd/design_1/ip/design_1_axi_timer_0_0/sim/design_1_axi_timer_0_0.vhd" 
vhdl xil_defaultlib "../../../bd/design_1/ip/design_1_axi_uartlite_0_0/sim/design_1_axi_uartlite_0_0.vhd" 
vhdl xil_defaultlib "../../../bd/design_1/ip/design_1_mdm_1_0/sim/design_1_mdm_1_0.vhd" 
vhdl xil_defaultlib "../../../bd/design_1/ip/design_1_microblaze_0_0/sim/design_1_microblaze_0_0.vhd" 
vhdl xil_defaultlib "../../../bd/design_1/ip/design_1_microblaze_0_axi_intc_0/sim/design_1_microblaze_0_axi_intc_0.vhd" 
vhdl xil_defaultlib "../../../bd/design_1/ip/design_1_dlmb_bram_if_cntlr_0/sim/design_1_dlmb_bram_if_cntlr_0.vhd" 
vhdl xil_defaultlib "../../../bd/design_1/ip/design_1_dlmb_v10_0/sim/design_1_dlmb_v10_0.vhd" 
vhdl xil_defaultlib "../../../bd/design_1/ip/design_1_ilmb_bram_if_cntlr_0/sim/design_1_ilmb_bram_if_cntlr_0.vhd" 
vhdl xil_defaultlib "../../../bd/design_1/ip/design_1_ilmb_v10_0/sim/design_1_ilmb_v10_0.vhd" 
vhdl xil_defaultlib "../../../bd/design_1/ip/design_1_rst_mig_7series_0_83M_0/sim/design_1_rst_mig_7series_0_83M_0.vhd" 
vhdl xil_defaultlib "../../../bd/design_1/ip/design_1_axi_timer_0_1/sim/design_1_axi_timer_0_1.vhd" 
vhdl xil_defaultlib "../../../bd/design_1/ip/design_1_axi_gpio_1_1/sim/design_1_axi_gpio_1_1.vhd" 
vhdl xil_defaultlib "../../../bd/design_1/ip/design_1_axi_uartlite_2_0/sim/design_1_axi_uartlite_2_0.vhd" 
vhdl xil_defaultlib "../../../bd/design_1/ip/design_1_axi_quad_spi_0_0/sim/design_1_axi_quad_spi_0_0.vhd" 
vhdl xil_defaultlib "../../../bd/design_1/ip/design_1_axi_quad_spi_0_1/sim/design_1_axi_quad_spi_0_1.vhd" 
vhdl xil_defaultlib "../../../bd/design_1/ip/design_1_axi_uartlite_2_1/sim/design_1_axi_uartlite_2_1.vhd" 
vhdl xil_defaultlib "../../../bd/design_1/ip/design_1_axi_uartlite_3_0/sim/design_1_axi_uartlite_3_0.vhd" 
vhdl xil_defaultlib "../../../bd/design_1/ip/design_1_axi_uartlite_Highgauge_0/sim/design_1_axi_uartlite_Highgauge_0.vhd" 
vhdl xil_defaultlib "../../../bd/design_1/ip/design_1_axi_uartlite_Highgauge1_0/sim/design_1_axi_uartlite_Highgauge1_0.vhd" 
vhdl xil_defaultlib "../../../bd/design_1/ip/design_1_axi_uartlite_Spare_0/sim/design_1_axi_uartlite_Spare_0.vhd" 
vhdl xil_defaultlib "../../../bd/design_1/ipshared/c0e5/src/multiplier.vhd" 
vhdl xil_defaultlib "../../../bd/design_1/ipshared/c0e5/src/counter.vhd" 
vhdl xil_defaultlib "../../../bd/design_1/ipshared/c0e5/hdl/DI_64bitcounter4_v1_0_S00_AXI.vhd" 
vhdl xil_defaultlib "../../../bd/design_1/ipshared/c0e5/hdl/DI_64bitcounter4_v1_0.vhd" 
vhdl xil_defaultlib "../../../bd/design_1/ip/design_1_DI_64bitcounter4_0_1/sim/design_1_DI_64bitcounter4_0_1.vhd" 

nosort
